2013/09/27 18:49:46

SCAN:Found 25
01,01,-48,00,2104,00,00,88:f0:77:36:74:f0,UNL-Wireless-Registration
02,01,-73,00,2104,00,00,00:25:84:24:79:a0,UNL-Wireless-Registration
03,01,-48,08,3104,28,00,88:f0:77:36:74:f2,UNL-AIR-E
04,01,-72,08,3104,28,00,00:25:84:24:79:a2,UNL-AIR-E
05,01,-71,00,2104,00,00,00:25:84:24:79:a1,UNL-AIR
06,01,-72,00,2104,00,00,00:25:84:24:79:a3,UNL-Conference
07,01,-47,00,2104,00,00,88:f0:77:36:74:f1,UNL-AIR
08,01,-47,00,2104,00,00,88:f0:77:36:74:f3,UNL-Conference
09,01,-47,08,3104,28,00,88:f0:77:36:74:f5,eduroam
10,01,-71,08,3104,28,00,b4:e9:b0:59:ed:d2,UNL-AIR-E
11,01,-71,00,2104,00,00,b4:e9:b0:59:ed:d1,UNL-AIR
12,01,-71,00,2104,00,00,b4:e9:b0:59:ed:d3,UNL-Conference
13,01,-71,08,3104,28,00,b4:e9:b0:59:ed:d5,eduroam
14,01,-77,00,2104,00,00,00:19:a9:b5:15:e0,
15,01,-75,00,2104,00,00,64:16:8d:ee:08:03,UNL-Conference
16,01,-72,08,3104,28,00,00:25:84:24:79:a5,eduroam
17,01,-76,08,3104,28,00,64:16:8d:ee:08:02,UNL-AIR-E
18,01,-75,00,2104,00,00,64:16:8d:ee:08:01,UNL-AIR
19,06,-32,00,2104,00,00,00:25:84:24:78:a0,UNL-Wireless-Registration
20,06,-32,08,3104,28,00,00:25:84:24:78:a2,UNL-AIR-E
21,06,-32,00,2104,00,00,00:25:84:24:78:a1,UNL-AIR
22,06,-32,00,2104,00,00,00:25:84:24:78:a3,UNL-Conference
23,06,-32,08,3104,28,00,00:25:84:24:78:a5,eduroam
24,06,-74,08,3104,28,00,1c:aa:07:c7:9c:e2,UNL-AIR-E
25,06,-78,08,3104,28,00,88:f0:77:36:4e:b2,UNL-AIR-E
END:
2013/09/27 18:50:07

SCAN:Found 25
01,01,-46,00,2104,00,00,88:f0:77:36:74:f0,UNL-Wireless-Registration
02,01,-70,00,2104,00,00,00:25:84:24:79:a0,UNL-Wireless-Registration
03,01,-46,08,3104,28,00,88:f0:77:36:74:f2,UNL-AIR-E
04,01,-71,00,2104,00,00,b4:e9:b0:59:ed:d0,UNL-Wireless-Registration
05,01,-46,00,2104,00,00,88:f0:77:36:74:f1,UNL-AIR
06,01,-46,00,2104,00,00,88:f0:77:36:74:f3,UNL-Conference
07,01,-76,08,3104,28,00,64:16:8d:ee:08:05,eduroam
08,01,-77,00,2104,00,00,64:16:8d:ee:08:00,UNL-Wireless-Registration
09,01,-75,08,3104,28,00,64:16:8d:ee:08:02,UNL-AIR-E
10,01,-78,00,2104,00,00,00:19:a9:b5:15:e0,
11,01,-75,00,2104,00,00,64:16:8d:ee:08:01,UNL-AIR
12,01,-70,08,3104,28,00,b4:e9:b0:59:ed:d5,eduroam
13,01,-74,00,2104,00,00,64:16:8d:ee:08:03,UNL-Conference
14,01,-71,08,3104,28,00,00:25:84:24:79:a5,eduroam
15,01,-47,08,3104,28,00,88:f0:77:36:74:f5,eduroam
16,06,-32,00,2104,00,00,00:25:84:24:78:a0,UNL-Wireless-Registration
17,06,-32,08,3104,28,00,00:25:84:24:78:a2,UNL-AIR-E
18,06,-32,00,2104,00,00,00:25:84:24:78:a1,UNL-AIR
19,06,-32,00,2104,00,00,00:25:84:24:78:a3,UNL-Conference
20,06,-32,08,3104,28,00,00:25:84:24:78:a5,eduroam
21,06,-79,00,2104,00,00,88:f0:77:36:4e:b3,UNL-Conference
22,06,-76,00,2104,00,00,b4:e9:b0:9e:5d:60,UNL-Wireless-Registration
23,06,-76,08,3104,28,00,b4:e9:b0:9e:5d:62,UNL-AIR-E
24,06,-73,00,2104,00,00,1c:aa:07:c7:9c:e0,UNL-Wireless-Registration
25,06,-73,08,3104,28,00,1c:aa:07:c7:9c:e2,UNL-AIR-E
END:
2013/09/27 18:50:26

SCAN:Found 25
01,01,-46,00,2104,00,00,88:f0:77:36:74:f0,UNL-Wireless-Registration
02,01,-70,00,2104,00,00,b4:e9:b0:59:ed:d0,UNL-Wireless-Registration
03,01,-46,08,3104,28,00,88:f0:77:36:74:f2,UNL-AIR-E
04,01,-71,08,3104,28,00,b4:e9:b0:59:ed:d2,UNL-AIR-E
05,01,-46,00,2104,00,00,88:f0:77:36:74:f1,UNL-AIR
06,01,-71,08,3104,28,00,00:25:84:24:79:a2,UNL-AIR-E
07,01,-71,00,2104,00,00,00:25:84:24:79:a1,UNL-AIR
08,01,-77,08,3104,28,00,64:16:8d:ee:08:02,UNL-AIR-E
09,01,-75,00,2104,00,00,64:16:8d:ee:08:01,UNL-AIR
10,01,-46,08,3104,28,00,88:f0:77:36:74:f5,eduroam
11,01,-71,00,2104,00,00,b4:e9:b0:59:ed:d3,UNL-Conference
12,01,-71,08,3104,28,00,b4:e9:b0:59:ed:d5,eduroam
13,01,-76,08,3104,28,00,64:16:8d:ee:08:05,eduroam
14,01,-71,00,2104,00,00,b4:e9:b0:59:ed:d1,UNL-AIR
15,01,-46,00,2104,00,00,88:f0:77:36:74:f3,UNL-Conference
16,01,-77,00,2104,00,00,64:16:8d:ee:08:03,UNL-Conference
17,01,-70,08,3104,28,00,00:25:84:24:79:a5,eduroam
18,01,-71,00,2104,00,00,00:25:84:24:79:a0,UNL-Wireless-Registration
19,01,-77,00,2104,00,00,64:16:8d:ee:08:00,UNL-Wireless-Registration
20,06,-32,00,2104,00,00,00:25:84:24:78:a0,UNL-Wireless-Registration
21,06,-32,08,3104,28,00,00:25:84:24:78:a2,UNL-AIR-E
22,06,-32,00,2104,00,00,00:25:84:24:78:a1,UNL-AIR
23,06,-32,00,2104,00,00,00:25:84:24:78:a3,UNL-Conference
24,06,-32,08,3104,28,00,00:25:84:24:78:a5,eduroam
25,06,-75,00,2104,00,00,1c:aa:07:c7:9c:e1,UNL-AIR
END:
2013/09/27 18:50:46

SCAN:Found 25
01,01,-47,00,2104,00,00,88:f0:77:36:74:f0,UNL-Wireless-Registration
02,01,-72,00,2104,00,00,00:25:84:24:79:a3,UNL-Conference
03,01,-48,08,3104,28,00,88:f0:77:36:74:f2,UNL-AIR-E
04,01,-72,08,3104,28,00,00:25:84:24:79:a2,UNL-AIR-E
05,01,-47,00,2104,00,00,88:f0:77:36:74:f1,UNL-AIR
06,01,-72,00,2104,00,00,00:25:84:24:79:a1,UNL-AIR
07,01,-47,00,2104,00,00,88:f0:77:36:74:f3,UNL-Conference
08,01,-47,08,3104,28,00,88:f0:77:36:74:f5,eduroam
09,01,-72,08,3104,28,00,00:25:84:24:79:a5,eduroam
10,01,-67,08,3104,28,00,b4:e9:b0:59:ed:d5,eduroam
11,01,-67,00,2104,00,00,b4:e9:b0:59:ed:d1,UNL-AIR
12,01,-67,00,2104,00,00,b4:e9:b0:59:ed:d3,UNL-Conference
13,01,-76,00,2104,00,00,64:16:8d:ee:08:01,UNL-AIR
14,01,-77,00,2104,00,00,64:16:8d:ee:08:03,UNL-Conference
15,01,-76,08,3104,28,00,64:16:8d:ee:08:05,eduroam
16,01,-77,00,2104,00,00,64:16:8d:ee:08:00,UNL-Wireless-Registration
17,01,-67,08,3104,28,00,b4:e9:b0:59:ed:d2,UNL-AIR-E
18,06,-31,00,2104,00,00,00:25:84:24:78:a0,UNL-Wireless-Registration
19,06,-79,00,2104,00,00,b4:e9:b0:9e:5d:60,UNL-Wireless-Registration
20,06,-31,08,3104,28,00,00:25:84:24:78:a2,UNL-AIR-E
21,06,-79,00,2104,00,00,00:25:84:24:76:21,UNL-AIR
22,06,-32,00,2104,00,00,00:25:84:24:78:a1,UNL-AIR
23,06,-31,08,3104,28,00,00:25:84:24:78:a5,eduroam
24,06,-78,00,2104,00,00,1c:aa:07:c7:9c:e1,UNL-AIR
25,06,-78,00,2104,00,00,1c:aa:07:c7:9c:e3,UNL-Conference
END:
2013/09/27 18:51:06

SCAN:Found 25
01,01,-45,00,2104,00,00,88:f0:77:36:74:f0,UNL-Wireless-Registration
02,01,-74,08,3104,28,00,64:16:8d:ee:08:02,UNL-AIR-E
03,01,-70,00,2104,00,00,00:25:84:24:79:a0,UNL-Wireless-Registration
04,01,-46,08,3104,28,00,88:f0:77:36:74:f2,UNL-AIR-E
05,01,-44,00,2104,00,00,88:f0:77:36:74:f1,UNL-AIR
06,01,-71,08,3104,28,00,00:25:84:24:79:a2,UNL-AIR-E
07,01,-71,00,2104,00,00,00:25:84:24:79:a1,UNL-AIR
08,01,-46,00,2104,00,00,88:f0:77:36:74:f3,UNL-Conference
09,01,-46,08,3104,28,00,88:f0:77:36:74:f5,eduroam
10,01,-71,00,2104,00,00,00:25:84:24:79:a3,UNL-Conference
11,01,-71,08,3104,28,00,00:25:84:24:79:a5,eduroam
12,01,-70,00,2104,00,00,b4:e9:b0:59:ed:d1,UNL-AIR
13,01,-70,00,2104,00,00,b4:e9:b0:59:ed:d3,UNL-Conference
14,01,-70,08,3104,28,00,b4:e9:b0:59:ed:d5,eduroam
15,01,-75,08,3104,28,00,64:16:8d:ee:08:05,eduroam
16,01,-75,00,2104,00,00,64:16:8d:ee:08:01,UNL-AIR
17,01,-74,00,2104,00,00,64:16:8d:ee:08:03,UNL-Conference
18,01,-70,00,2104,00,00,b4:e9:b0:59:ed:d0,UNL-Wireless-Registration
19,01,-78,00,2104,00,00,00:19:a9:b5:15:e0,
20,06,-32,00,2104,00,00,00:25:84:24:78:a0,UNL-Wireless-Registration
21,06,-31,08,3104,28,00,00:25:84:24:78:a2,UNL-AIR-E
22,06,-76,08,3104,28,00,1c:aa:07:c7:9c:e2,UNL-AIR-E
23,06,-75,00,2104,00,00,00:25:84:24:76:20,UNL-Wireless-Registration
24,06,-32,00,2104,00,00,00:25:84:24:78:a1,UNL-AIR
25,06,-32,00,2104,00,00,00:25:84:24:78:a3,UNL-Conference
END:
2013/09/27 18:51:26

SCAN:Found 25
01,01,-47,00,2104,00,00,88:f0:77:36:74:f0,UNL-Wireless-Registration
02,01,-47,08,3104,28,00,88:f0:77:36:74:f2,UNL-AIR-E
03,01,-47,00,2104,00,00,88:f0:77:36:74:f1,UNL-AIR
04,01,-47,00,2104,00,00,88:f0:77:36:74:f3,UNL-Conference
05,01,-48,08,3104,28,00,88:f0:77:36:74:f5,eduroam
06,01,-73,08,3104,28,00,b4:e9:b0:59:ed:d2,UNL-AIR-E
07,01,-69,00,2104,00,00,00:25:84:24:79:a1,UNL-AIR
08,01,-69,00,2104,00,00,00:25:84:24:79:a3,UNL-Conference
09,01,-75,00,2104,00,00,64:16:8d:ee:08:01,UNL-AIR
10,01,-73,08,3104,28,00,b4:e9:b0:59:ed:d5,eduroam
11,01,-73,00,2104,00,00,b4:e9:b0:59:ed:d1,UNL-AIR
12,01,-70,08,3104,28,00,00:25:84:24:79:a5,eduroam
13,01,-75,08,3104,28,00,64:16:8d:ee:08:05,eduroam
14,01,-72,00,2104,00,00,b4:e9:b0:59:ed:d3,UNL-Conference
15,01,-75,08,3104,28,00,64:16:8d:ee:08:02,UNL-AIR-E
16,01,-75,00,2104,00,00,64:16:8d:ee:08:00,UNL-Wireless-Registration
17,06,-77,08,3104,28,00,b4:e9:b0:9e:5d:62,UNL-AIR-E
18,06,-33,00,2104,00,00,00:25:84:24:78:a0,UNL-Wireless-Registration
19,06,-32,08,3104,28,00,00:25:84:24:78:a2,UNL-AIR-E
20,06,-32,00,2104,00,00,00:25:84:24:78:a1,UNL-AIR
21,06,-32,00,2104,00,00,00:25:84:24:78:a3,UNL-Conference
22,06,-32,08,3104,28,00,00:25:84:24:78:a5,eduroam
23,06,-78,00,2104,00,00,1c:aa:07:c7:9c:e0,UNL-Wireless-Registration
24,06,-77,00,2104,00,00,b4:e9:b0:9e:5d:61,UNL-AIR
25,06,-67,00,2104,00,00,00:25:84:24:76:23,UNL-Conference
END:
2013/09/27 18:51:46

SCAN:Found 25
01,01,-47,00,2104,00,00,88:f0:77:36:74:f0,UNL-Wireless-Registration
02,01,-47,08,3104,28,00,88:f0:77:36:74:f2,UNL-AIR-E
03,01,-47,00,2104,00,00,88:f0:77:36:74:f1,UNL-AIR
04,01,-47,00,2104,00,00,88:f0:77:36:74:f3,UNL-Conference
05,01,-47,08,3104,28,00,88:f0:77:36:74:f5,eduroam
06,01,-71,00,2104,00,00,b4:e9:b0:59:ed:d0,UNL-Wireless-Registration
07,01,-75,00,2104,00,00,64:16:8d:ee:08:00,UNL-Wireless-Registration
08,01,-75,08,3104,28,00,64:16:8d:ee:08:02,UNL-AIR-E
09,01,-75,00,2104,00,00,64:16:8d:ee:08:01,UNL-AIR
10,01,-71,00,2104,00,00,b4:e9:b0:59:ed:d1,UNL-AIR
11,01,-69,08,3104,28,00,00:25:84:24:79:a2,UNL-AIR-E
12,01,-69,00,2104,00,00,00:25:84:24:79:a1,UNL-AIR
13,01,-72,00,2104,00,00,b4:e9:b0:59:ed:d3,UNL-Conference
14,01,-72,08,3104,28,00,b4:e9:b0:59:ed:d5,eduroam
15,01,-69,00,2104,00,00,00:25:84:24:79:a3,UNL-Conference
16,01,-68,08,3104,28,00,00:25:84:24:79:a5,eduroam
17,01,-76,00,2104,00,00,64:16:8d:ee:08:03,UNL-Conference
18,06,-33,00,2104,00,00,00:25:84:24:78:a0,UNL-Wireless-Registration
19,06,-33,08,3104,28,00,00:25:84:24:78:a2,UNL-AIR-E
20,06,-33,00,2104,00,00,00:25:84:24:78:a1,UNL-AIR
21,06,-33,00,2104,00,00,00:25:84:24:78:a3,UNL-Conference
22,06,-33,08,3104,28,00,00:25:84:24:78:a5,eduroam
23,06,-77,00,2104,00,00,1c:aa:07:c7:9c:e1,UNL-AIR
24,06,-72,08,3104,28,00,00:25:84:24:76:22,UNL-AIR-E
25,06,-77,00,2104,00,00,1c:aa:07:c7:9c:e3,UNL-Conference
END:
2013/09/27 18:52:06

SCAN:Found 25
01,01,-66,00,2104,00,00,b4:e9:b0:59:ed:d3,UNL-Conference
02,01,-48,00,2104,00,00,88:f0:77:36:74:f0,UNL-Wireless-Registration
03,01,-72,00,2104,00,00,00:25:84:24:79:a0,UNL-Wireless-Registration
04,01,-47,08,3104,28,00,88:f0:77:36:74:f2,UNL-AIR-E
05,01,-72,08,3104,28,00,00:25:84:24:79:a2,UNL-AIR-E
06,01,-71,00,2104,00,00,00:25:84:24:79:a1,UNL-AIR
07,01,-47,00,2104,00,00,88:f0:77:36:74:f1,UNL-AIR
08,01,-47,00,2104,00,00,88:f0:77:36:74:f3,UNL-Conference
09,01,-72,00,2104,00,00,00:25:84:24:79:a3,UNL-Conference
10,01,-71,08,3104,28,00,00:25:84:24:79:a5,eduroam
11,01,-48,08,3104,28,00,88:f0:77:36:74:f5,eduroam
12,01,-66,00,2104,00,00,b4:e9:b0:59:ed:d0,UNL-Wireless-Registration
13,01,-65,08,3104,28,00,b4:e9:b0:59:ed:d2,UNL-AIR-E
14,01,-66,00,2104,00,00,b4:e9:b0:59:ed:d1,UNL-AIR
15,01,-66,08,3104,28,00,b4:e9:b0:59:ed:d5,eduroam
16,01,-81,00,2104,00,00,00:19:a9:b5:15:e0,
17,06,-77,00,2104,00,00,00:25:84:24:76:20,UNL-Wireless-Registration
18,06,-73,08,3104,28,00,00:25:84:24:76:22,UNL-AIR-E
19,06,-31,00,2104,00,00,00:25:84:24:78:a0,UNL-Wireless-Registration
20,06,-31,08,3104,28,00,00:25:84:24:78:a2,UNL-AIR-E
21,06,-73,00,2104,00,00,00:25:84:24:76:21,UNL-AIR
22,06,-31,00,2104,00,00,00:25:84:24:78:a1,UNL-AIR
23,06,-74,00,2104,00,00,00:25:84:24:76:23,UNL-Conference
24,06,-31,00,2104,00,00,00:25:84:24:78:a3,UNL-Conference
25,06,-31,08,3104,28,00,00:25:84:24:78:a5,eduroam
END:
2013/09/27 18:52:26

SCAN:Found 25
01,01,-46,00,2104,00,00,88:f0:77:36:74:f0,UNL-Wireless-Registration
02,01,-46,08,3104,28,00,88:f0:77:36:74:f2,UNL-AIR-E
03,01,-65,08,3104,28,00,b4:e9:b0:59:ed:d2,UNL-AIR-E
04,01,-46,00,2104,00,00,88:f0:77:36:74:f1,UNL-AIR
05,01,-46,00,2104,00,00,88:f0:77:36:74:f3,UNL-Conference
06,01,-71,08,3104,28,00,00:25:84:24:79:a2,UNL-AIR-E
07,01,-47,08,3104,28,00,88:f0:77:36:74:f5,eduroam
08,01,-71,00,2104,00,00,00:25:84:24:79:a1,UNL-AIR
09,01,-70,00,2104,00,00,00:25:84:24:79:a3,UNL-Conference
10,01,-71,08,3104,28,00,00:25:84:24:79:a5,eduroam
11,01,-69,00,2104,00,00,b4:e9:b0:59:ed:d1,UNL-AIR
12,01,-65,00,2104,00,00,b4:e9:b0:59:ed:d3,UNL-Conference
13,01,-78,00,2104,00,00,00:19:a9:b5:15:e0,
14,01,-66,08,3104,28,00,b4:e9:b0:59:ed:d5,eduroam
15,06,-31,00,2104,00,00,00:25:84:24:78:a0,UNL-Wireless-Registration
16,06,-32,08,3104,28,00,00:25:84:24:78:a5,eduroam
17,06,-32,08,3104,28,00,00:25:84:24:78:a2,UNL-AIR-E
18,06,-70,08,3104,28,00,00:25:84:24:76:22,UNL-AIR-E
19,06,-31,00,2104,00,00,00:25:84:24:78:a1,UNL-AIR
20,06,-76,00,2104,00,00,88:f0:77:36:4e:b0,UNL-Wireless-Registration
21,06,-32,00,2104,00,00,00:25:84:24:78:a3,UNL-Conference
22,06,-70,00,2104,00,00,00:25:84:24:76:21,UNL-AIR
23,06,-70,00,2104,00,00,00:25:84:24:76:23,UNL-Conference
24,06,-70,08,3104,28,00,00:25:84:24:76:25,eduroam
25,06,-70,00,2104,00,00,00:25:84:24:76:20,UNL-Wireless-Registration
END:
2013/09/27 18:52:46

SCAN:Found 25
01,01,-48,00,2104,00,00,88:f0:77:36:74:f0,UNL-Wireless-Registration
02,01,-64,00,2104,00,00,b4:e9:b0:59:ed:d0,UNL-Wireless-Registration
03,01,-47,00,2104,00,00,88:f0:77:36:74:f3,UNL-Conference
04,01,-64,08,3104,28,00,b4:e9:b0:59:ed:d2,UNL-AIR-E
05,01,-48,08,3104,28,00,88:f0:77:36:74:f2,UNL-AIR-E
06,01,-70,00,2104,00,00,00:25:84:24:79:a0,UNL-Wireless-Registration
07,01,-48,00,2104,00,00,88:f0:77:36:74:f1,UNL-AIR
08,01,-70,08,3104,28,00,00:25:84:24:79:a2,UNL-AIR-E
09,01,-65,00,2104,00,00,b4:e9:b0:59:ed:d1,UNL-AIR
10,01,-48,08,3104,28,00,88:f0:77:36:74:f5,eduroam
11,01,-70,00,2104,00,00,00:25:84:24:79:a1,UNL-AIR
12,01,-65,00,2104,00,00,b4:e9:b0:59:ed:d3,UNL-Conference
13,01,-70,08,3104,28,00,00:25:84:24:79:a5,eduroam
14,01,-76,08,3104,28,00,64:16:8d:ee:08:05,eduroam
15,01,-75,08,3104,28,00,64:16:8d:ee:08:02,UNL-AIR-E
16,01,-77,00,2104,00,00,64:16:8d:ee:08:01,UNL-AIR
17,01,-64,08,3104,28,00,b4:e9:b0:59:ed:d5,eduroam
18,06,-31,00,2104,00,00,00:25:84:24:78:a0,UNL-Wireless-Registration
19,06,-31,08,3104,28,00,00:25:84:24:78:a2,UNL-AIR-E
20,06,-73,00,2104,00,00,00:25:84:24:76:20,UNL-Wireless-Registration
21,06,-31,00,2104,00,00,00:25:84:24:78:a1,UNL-AIR
22,06,-31,00,2104,00,00,00:25:84:24:78:a3,UNL-Conference
23,06,-31,08,3104,28,00,00:25:84:24:78:a5,eduroam
24,06,-76,00,2104,00,00,1c:aa:07:c7:9c:e0,UNL-Wireless-Registration
25,06,-77,00,2104,00,00,1c:aa:07:c7:9c:e3,UNL-Conference
END:
2013/09/27 18:53:06

SCAN:Found 25
01,01,-74,00,2104,00,00,64:16:8d:ee:08:00,UNL-Wireless-Registration
02,01,-75,08,3104,28,00,64:16:8d:ee:08:02,UNL-AIR-E
03,01,-48,08,3104,28,00,88:f0:77:36:74:f2,UNL-AIR-E
04,01,-49,00,2104,00,00,88:f0:77:36:74:f1,UNL-AIR
05,01,-67,08,3104,28,00,b4:e9:b0:59:ed:d5,eduroam
06,01,-74,00,2104,00,00,64:16:8d:ee:08:03,UNL-Conference
07,01,-72,08,3104,28,00,00:25:84:24:79:a5,eduroam
08,01,-48,08,3104,28,00,88:f0:77:36:74:f5,eduroam
09,01,-49,00,2104,00,00,88:f0:77:36:74:f0,UNL-Wireless-Registration
10,01,-80,00,2104,00,00,00:19:a9:b5:15:e0,
11,01,-67,00,2104,00,00,b4:e9:b0:59:ed:d3,UNL-Conference
12,01,-74,08,3104,28,00,64:16:8d:ee:08:05,eduroam
13,01,-68,00,2104,00,00,b4:e9:b0:59:ed:d0,UNL-Wireless-Registration
14,06,-79,00,2104,00,00,b4:e9:b0:9e:5d:60,UNL-Wireless-Registration
15,06,-33,00,2104,00,00,00:25:84:24:78:a0,UNL-Wireless-Registration
16,06,-32,08,3104,28,00,00:25:84:24:78:a2,UNL-AIR-E
17,06,-76,08,3104,28,00,1c:aa:07:c7:9c:e2,UNL-AIR-E
18,06,-33,00,2104,00,00,00:25:84:24:78:a1,UNL-AIR
19,06,-32,00,2104,00,00,00:25:84:24:78:a3,UNL-Conference
20,06,-32,08,3104,28,00,00:25:84:24:78:a5,eduroam
21,06,-76,08,3104,28,00,00:25:84:24:76:25,eduroam
22,06,-76,00,2104,00,00,1c:aa:07:c7:9c:e1,UNL-AIR
23,06,-76,08,3104,28,00,00:25:84:24:76:22,UNL-AIR-E
24,06,-76,00,2104,00,00,00:25:84:24:76:23,UNL-Conference
25,06,-77,00,2104,00,00,88:f0:77:36:4e:b1,UNL-AIR
END:
2013/09/27 18:53:28

SCAN:Found 25
01,01,-74,00,2104,00,00,64:16:8d:ee:08:01,UNL-AIR
02,01,-55,00,2104,00,00,88:f0:77:36:74:f0,UNL-Wireless-Registration
03,01,-74,00,2104,00,00,64:16:8d:ee:08:00,UNL-Wireless-Registration
04,01,-75,08,3104,28,00,64:16:8d:ee:08:02,UNL-AIR-E
05,01,-55,08,3104,28,00,88:f0:77:36:74:f2,UNL-AIR-E
06,01,-71,00,2104,00,00,b4:e9:b0:59:ed:d0,UNL-Wireless-Registration
07,01,-71,08,3104,28,00,b4:e9:b0:59:ed:d2,UNL-AIR-E
08,01,-56,00,2104,00,00,88:f0:77:36:74:f3,UNL-Conference
09,01,-56,08,3104,28,00,88:f0:77:36:74:f5,eduroam
10,01,-71,00,2104,00,00,b4:e9:b0:59:ed:d3,UNL-Conference
11,01,-70,00,2104,00,00,b4:e9:b0:59:ed:d1,UNL-AIR
12,01,-75,08,3104,28,00,64:16:8d:ee:08:05,eduroam
13,01,-76,00,2104,00,00,00:25:84:24:79:a0,UNL-Wireless-Registration
14,01,-75,08,3104,28,00,00:25:84:24:79:a2,UNL-AIR-E
15,01,-53,00,2104,00,00,88:f0:77:36:74:f1,UNL-AIR
16,06,-46,00,2104,00,00,00:25:84:24:78:a0,UNL-Wireless-Registration
17,06,-64,00,2104,00,00,00:25:84:24:76:23,UNL-Conference
18,06,-49,00,2104,00,00,00:25:84:24:78:a3,UNL-Conference
19,06,-64,00,2104,00,00,00:25:84:24:76:20,UNL-Wireless-Registration
20,06,-65,08,3104,28,00,00:25:84:24:76:22,UNL-AIR-E
21,06,-46,08,3104,28,00,00:25:84:24:78:a5,eduroam
22,06,-67,00,2104,00,00,00:25:84:24:47:00,UNL-Wireless-Registration
23,11,-47,00,2104,00,00,b4:e9:b0:9e:5d:c0,UNL-Wireless-Registration
24,11,-70,08,3104,28,00,1c:aa:07:c7:9c:b5,eduroam
25,11,-47,00,2104,00,00,b4:e9:b0:9e:5d:c3,UNL-Conference
END:
