2013/09/27 19:03:13

SCAN:Found 25
01,01,-53,00,2104,00,00,00:25:84:24:79:40,UNL-Wireless-Registration
02,01,-53,08,3104,28,00,00:25:84:24:79:42,UNL-AIR-E
03,01,-72,08,3104,28,00,88:f0:77:36:74:f2,UNL-AIR-E
04,01,-54,00,2104,00,00,00:25:84:24:79:41,UNL-AIR
05,01,-71,00,2104,00,00,00:25:84:24:79:a3,UNL-Conference
06,01,-74,08,3104,28,00,64:16:8d:ee:08:02,UNL-AIR-E
07,01,-74,00,2104,00,00,64:16:8d:ee:08:01,UNL-AIR
08,01,-53,00,2104,00,00,00:25:84:24:79:43,UNL-Conference
09,01,-54,08,3104,28,00,00:25:84:24:79:45,eduroam
10,01,-74,00,2104,00,00,64:16:8d:ee:08:03,UNL-Conference
11,01,-73,00,2104,00,00,88:f0:77:36:74:f3,UNL-Conference
12,01,-72,08,3104,28,00,88:f0:77:36:74:f5,eduroam
13,01,-76,00,2104,00,00,b4:e9:b0:9e:5e:20,UNL-Wireless-Registration
14,01,-79,08,3104,28,00,b4:e9:b0:9e:5e:22,UNL-AIR-E
15,01,-75,08,3104,28,00,64:16:8d:ee:08:05,eduroam
16,01,-70,00,2104,00,00,00:25:84:24:79:a0,UNL-Wireless-Registration
17,01,-71,08,3104,28,00,00:25:84:24:79:a2,UNL-AIR-E
18,01,-70,00,2104,00,00,00:25:84:24:79:a1,UNL-AIR
19,01,-73,00,2104,00,00,88:f0:77:36:74:f1,UNL-AIR
20,01,-71,08,3104,28,00,00:25:84:24:79:a5,eduroam
21,01,-72,00,2104,00,00,88:f0:77:36:74:f0,UNL-Wireless-Registration
22,01,-75,00,2104,00,00,64:16:8d:ee:08:00,UNL-Wireless-Registration
23,06,-62,08,3104,28,00,b4:e9:b0:9e:5d:62,UNL-AIR-E
24,06,-74,00,2104,00,00,1c:aa:07:c7:9c:40,UNL-Wireless-Registration
25,06,-74,00,2104,00,00,00:25:84:24:76:21,UNL-AIR
END:
2013/09/27 19:03:32

SCAN:Found 25
01,01,-77,08,3104,28,00,64:16:8d:ee:08:05,eduroam
02,01,-70,08,3104,28,00,00:25:84:24:79:a2,UNL-AIR-E
03,01,-73,08,3104,28,00,88:f0:77:36:74:f2,UNL-AIR-E
04,01,-57,08,3104,28,00,00:25:84:24:79:42,UNL-AIR-E
05,01,-84,08,3104,28,00,64:16:8d:ee:08:02,UNL-AIR-E
06,01,-74,00,2104,00,00,88:f0:77:36:74:f1,UNL-AIR
07,01,-56,00,2104,00,00,00:25:84:24:79:41,UNL-AIR
08,01,-74,00,2104,00,00,88:f0:77:36:74:f3,UNL-Conference
09,01,-57,00,2104,00,00,00:25:84:24:79:43,UNL-Conference
10,01,-70,08,3104,28,00,00:25:84:24:79:a5,eduroam
11,01,-73,08,3104,28,00,88:f0:77:36:74:f5,eduroam
12,01,-57,08,3104,28,00,00:25:84:24:79:45,eduroam
13,01,-70,00,2104,00,00,00:25:84:24:79:a0,UNL-Wireless-Registration
14,01,-74,00,2104,00,00,88:f0:77:36:74:f0,UNL-Wireless-Registration
15,01,-57,00,2104,00,00,00:25:84:24:79:40,UNL-Wireless-Registration
16,01,-70,00,2104,00,00,00:25:84:24:79:a3,UNL-Conference
17,06,-64,00,2104,00,00,b4:e9:b0:9e:5d:60,UNL-Wireless-Registration
18,06,-70,00,2104,00,00,1c:aa:07:c7:9c:e3,UNL-Conference
19,06,-65,00,2104,00,00,b4:e9:b0:9e:5d:61,UNL-AIR
20,06,-64,00,2104,00,00,b4:e9:b0:9e:5d:63,UNL-Conference
21,06,-70,00,2104,00,00,00:25:84:24:78:a1,UNL-AIR
22,06,-65,08,3104,28,00,b4:e9:b0:9e:5d:65,eduroam
23,06,-70,00,2104,00,00,00:25:84:24:78:a3,UNL-Conference
24,06,-71,08,3104,28,00,00:25:84:24:78:a5,eduroam
25,06,-76,00,2104,00,00,1c:aa:07:c7:9c:43,UNL-Conference
END:
2013/09/27 19:03:52

SCAN:Found 25
01,01,-69,00,2104,00,00,00:25:84:24:79:a1,UNL-AIR
02,01,-59,00,2104,00,00,00:25:84:24:79:41,UNL-AIR
03,01,-58,00,2104,00,00,00:25:84:24:79:43,UNL-Conference
04,01,-58,08,3104,28,00,00:25:84:24:79:45,eduroam
05,01,-72,08,3104,28,00,88:f0:77:36:74:f2,UNL-AIR-E
06,01,-70,00,2104,00,00,00:25:84:24:79:a3,UNL-Conference
07,01,-75,00,2104,00,00,64:16:8d:ee:08:03,UNL-Conference
08,01,-70,08,3104,28,00,00:25:84:24:79:a5,eduroam
09,01,-72,08,3104,28,00,88:f0:77:36:74:f5,eduroam
10,01,-79,08,3104,28,00,b4:e9:b0:9e:5e:22,UNL-AIR-E
11,01,-75,08,3104,28,00,64:16:8d:ee:08:05,eduroam
12,01,-70,00,2104,00,00,00:25:84:24:79:a0,UNL-Wireless-Registration
13,01,-70,08,3104,28,00,00:25:84:24:79:a2,UNL-AIR-E
14,01,-72,00,2104,00,00,88:f0:77:36:74:f1,UNL-AIR
15,01,-76,00,2104,00,00,64:16:8d:ee:08:01,UNL-AIR
16,01,-73,00,2104,00,00,88:f0:77:36:74:f3,UNL-Conference
17,01,-73,00,2104,00,00,88:f0:77:36:74:f0,UNL-Wireless-Registration
18,01,-60,00,2104,00,00,00:25:84:24:79:40,UNL-Wireless-Registration
19,06,-64,08,3104,28,00,b4:e9:b0:9e:5d:62,UNL-AIR-E
20,06,-69,08,3104,28,00,00:25:84:24:78:a2,UNL-AIR-E
21,06,-67,08,3104,28,00,1c:aa:07:c7:9c:e2,UNL-AIR-E
22,06,-68,00,2104,00,00,1c:aa:07:c7:9c:e1,UNL-AIR
23,06,-63,00,2104,00,00,b4:e9:b0:9e:5d:61,UNL-AIR
24,06,-68,00,2104,00,00,00:25:84:24:78:a1,UNL-AIR
25,06,-67,08,3104,28,00,1c:aa:07:c7:9c:e5,eduroam
END:
2013/09/27 19:04:12

SCAN:Found 25
01,01,-56,00,2104,00,00,00:25:84:24:79:40,UNL-Wireless-Registration
02,01,-69,08,3104,28,00,00:25:84:24:79:a2,UNL-AIR-E
03,01,-57,08,3104,28,00,00:25:84:24:79:45,eduroam
04,01,-71,08,3104,28,00,64:16:8d:ee:08:02,UNL-AIR-E
05,01,-57,08,3104,28,00,00:25:84:24:79:42,UNL-AIR-E
06,01,-69,00,2104,00,00,00:25:84:24:79:a1,UNL-AIR
07,01,-56,00,2104,00,00,00:25:84:24:79:41,UNL-AIR
08,01,-57,00,2104,00,00,00:25:84:24:79:43,UNL-Conference
09,01,-70,08,3104,28,00,00:25:84:24:79:a5,eduroam
10,01,-72,00,2104,00,00,64:16:8d:ee:08:01,UNL-AIR
11,01,-71,00,2104,00,00,64:16:8d:ee:08:03,UNL-Conference
12,01,-70,08,3104,28,00,64:16:8d:ee:08:05,eduroam
13,01,-71,08,3104,28,00,88:f0:77:36:74:f2,UNL-AIR-E
14,01,-71,00,2104,00,00,88:f0:77:36:74:f1,UNL-AIR
15,01,-70,00,2104,00,00,00:25:84:24:79:a3,UNL-Conference
16,01,-72,00,2104,00,00,88:f0:77:36:74:f3,UNL-Conference
17,01,-72,08,3104,28,00,88:f0:77:36:74:f5,eduroam
18,01,-70,00,2104,00,00,00:25:84:24:79:a0,UNL-Wireless-Registration
19,06,-68,00,2104,00,00,1c:aa:07:c7:99:53,UNL-Conference
20,06,-74,08,3104,28,00,00:25:84:24:76:25,eduroam
21,06,-66,00,2104,00,00,88:f0:77:36:4e:b0,UNL-Wireless-Registration
22,06,-65,00,2104,00,00,b4:e9:b0:9e:5d:63,UNL-Conference
23,06,-69,00,2104,00,00,00:25:84:24:78:a0,UNL-Wireless-Registration
24,06,-70,00,2104,00,00,1c:aa:07:c7:9c:e1,UNL-AIR
25,06,-67,00,2104,00,00,88:f0:77:36:4e:b1,UNL-AIR
END:
2013/09/27 19:04:33

SCAN:Found 25
01,01,-55,00,2104,00,00,00:25:84:24:79:40,UNL-Wireless-Registration
02,01,-71,00,2104,00,00,00:25:84:24:79:a0,UNL-Wireless-Registration
03,01,-55,00,2104,00,00,00:25:84:24:79:41,UNL-AIR
04,01,-73,00,2104,00,00,64:16:8d:ee:08:01,UNL-AIR
05,01,-71,00,2104,00,00,00:25:84:24:79:a3,UNL-Conference
06,01,-72,00,2104,00,00,88:f0:77:36:74:f3,UNL-Conference
07,01,-55,00,2104,00,00,00:25:84:24:79:43,UNL-Conference
08,01,-73,00,2104,00,00,64:16:8d:ee:08:03,UNL-Conference
09,01,-72,08,3104,28,00,00:25:84:24:79:a5,eduroam
10,01,-71,08,3104,28,00,88:f0:77:36:74:f5,eduroam
11,01,-55,08,3104,28,00,00:25:84:24:79:45,eduroam
12,01,-73,08,3104,28,00,64:16:8d:ee:08:05,eduroam
13,01,-72,00,2104,00,00,88:f0:77:36:74:f0,UNL-Wireless-Registration
14,01,-73,00,2104,00,00,64:16:8d:ee:08:00,UNL-Wireless-Registration
15,01,-72,08,3104,28,00,00:25:84:24:79:a2,UNL-AIR-E
16,01,-72,08,3104,28,00,88:f0:77:36:74:f2,UNL-AIR-E
17,01,-54,08,3104,28,00,00:25:84:24:79:42,UNL-AIR-E
18,01,-73,08,3104,28,00,64:16:8d:ee:08:02,UNL-AIR-E
19,01,-72,00,2104,00,00,00:25:84:24:79:a1,UNL-AIR
20,01,-72,00,2104,00,00,88:f0:77:36:74:f1,UNL-AIR
21,06,-68,00,2104,00,00,88:f0:77:36:4e:b0,UNL-Wireless-Registration
22,06,-65,00,2104,00,00,b4:e9:b0:9e:5d:60,UNL-Wireless-Registration
23,06,-66,08,3104,28,00,b4:e9:b0:9e:5d:62,UNL-AIR-E
24,06,-68,00,2104,00,00,88:f0:77:36:4e:b1,UNL-AIR
25,06,-68,00,2104,00,00,88:f0:77:36:4e:b3,UNL-Conference
END:
