2013/09/27 19:46:55

SCAN:Found 23
01,01,-69,00,2104,00,00,88:f0:77:36:54:10,UNL-AIR
02,01,-70,00,2104,00,00,88:f0:77:36:54:12,UNL-Wireless-Registration
03,01,-69,08,3104,28,00,88:f0:77:36:54:11,UNL-AIR-E
04,01,-69,00,2104,00,00,88:f0:77:36:54:13,UNL-Conference
05,01,-69,08,3104,28,00,88:f0:77:36:54:15,eduroam
06,01,-73,08,3104,28,00,40:f4:ec:a2:98:61,UNL-AIR-E
07,01,-73,00,2104,00,00,40:f4:ec:a2:98:63,UNL-Conference
08,01,-72,08,3104,28,00,40:f4:ec:a2:98:65,eduroam
09,01,-73,00,2104,00,00,40:f4:ec:a2:98:62,UNL-Wireless-Registration
10,01,-72,00,2104,00,00,40:f4:ec:a2:98:60,UNL-AIR
11,06,-71,00,2104,00,00,00:23:eb:7f:ec:00,UNL-AIR
12,06,-60,08,3104,28,00,40:f4:ec:a2:9f:b5,eduroam
13,06,-60,00,2104,00,00,40:f4:ec:a2:9f:b2,UNL-Wireless-Registration
14,06,-75,00,2104,00,00,40:f4:ec:61:2d:33,UNL-Conference
15,06,-60,08,3104,28,00,40:f4:ec:a2:9f:b1,UNL-AIR-E
16,06,-60,00,2104,00,00,40:f4:ec:a2:9f:b3,UNL-Conference
17,06,-75,08,3104,28,00,40:f4:ec:61:2d:31,UNL-AIR-E
18,06,-72,00,2104,00,00,00:23:eb:7f:ec:03,UNL-Conference
19,11,-65,00,2104,00,00,40:f4:ec:a2:a0:a0,UNL-AIR
20,11,-64,00,2104,00,00,40:f4:ec:a2:a0:a2,UNL-Wireless-Registration
21,11,-64,08,3104,28,00,40:f4:ec:a2:a0:a1,UNL-AIR-E
22,11,-64,00,2104,00,00,40:f4:ec:a2:a0:a3,UNL-Conference
23,11,-64,08,3104,28,00,40:f4:ec:a2:a0:a5,eduroam
END:
2013/09/27 19:47:15

SCAN:Found 25
01,01,-70,00,2104,00,00,40:f4:ec:a2:98:63,UNL-Conference
02,01,-70,08,3104,28,00,40:f4:ec:a2:98:65,eduroam
03,01,-70,00,2104,00,00,88:f0:77:36:54:13,UNL-Conference
04,01,-70,08,3104,28,00,88:f0:77:36:54:15,eduroam
05,01,-70,00,2104,00,00,88:f0:77:36:54:12,UNL-Wireless-Registration
06,01,-71,00,2104,00,00,40:f4:ec:a2:98:60,UNL-AIR
07,01,-70,08,3104,28,00,88:f0:77:36:54:11,UNL-AIR-E
08,01,-71,00,2104,00,00,40:f4:ec:a2:98:62,UNL-Wireless-Registration
09,01,-71,08,3104,28,00,40:f4:ec:a2:98:61,UNL-AIR-E
10,01,-69,00,2104,00,00,88:f0:77:36:54:10,UNL-AIR
11,06,-75,08,3104,28,00,40:f4:ec:61:2d:31,UNL-AIR-E
12,06,-57,00,2104,00,00,40:f4:ec:a2:9f:b2,UNL-Wireless-Registration
13,06,-67,00,2104,00,00,00:23:eb:7f:ec:03,UNL-Conference
14,06,-74,08,3104,28,00,00:23:eb:7f:fb:61,UNL-AIR-E
15,06,-78,00,2104,00,00,a4:56:30:e9:e2:72,UNL-Wireless-Registration
16,06,-74,00,2104,00,00,40:f4:ec:61:2d:33,UNL-Conference
17,06,-57,08,3104,28,00,40:f4:ec:a2:9f:b1,UNL-AIR-E
18,06,-67,00,2104,00,00,00:23:eb:7f:ec:00,UNL-AIR
19,06,-57,08,3104,28,00,40:f4:ec:a2:9f:b5,eduroam
20,06,-57,00,2104,00,00,40:f4:ec:a2:9f:b0,UNL-AIR
21,06,-57,00,2104,00,00,40:f4:ec:a2:9f:b3,UNL-Conference
22,06,-67,00,2104,00,00,00:23:eb:7f:ec:02,UNL-Wireless-Registration
23,11,-64,00,2104,00,00,40:f4:ec:a2:a0:a0,UNL-AIR
24,11,-64,08,3104,28,00,40:f4:ec:a2:a0:a1,UNL-AIR-E
25,11,-64,00,2104,00,00,40:f4:ec:a2:a0:a3,UNL-Conference
END:
2013/09/27 19:47:35

SCAN:Found 25
01,01,-69,00,2104,00,00,88:f0:77:36:54:10,UNL-AIR
02,01,-69,00,2104,00,00,88:f0:77:36:54:12,UNL-Wireless-Registration
03,01,-71,08,3104,28,00,40:f4:ec:a2:98:61,UNL-AIR-E
04,01,-70,08,3104,28,00,88:f0:77:36:54:15,eduroam
05,01,-70,08,3104,28,00,40:f4:ec:a2:98:65,eduroam
06,01,-70,08,3104,28,00,88:f0:77:36:54:11,UNL-AIR-E
07,01,-68,00,2104,00,00,40:f4:ec:a2:98:62,UNL-Wireless-Registration
08,06,-62,00,2104,00,00,00:23:eb:7f:ec:00,UNL-AIR
09,06,-63,00,2104,00,00,00:23:eb:7f:ec:02,UNL-Wireless-Registration
10,06,-75,00,2104,00,00,40:f4:ec:61:2d:30,UNL-AIR
11,06,-63,08,3104,28,00,00:23:eb:7f:ec:01,UNL-AIR-E
12,06,-63,00,2104,00,00,00:23:eb:7f:ec:03,UNL-Conference
13,06,-63,08,3104,28,00,00:23:eb:7f:ec:05,eduroam
14,06,-56,00,2104,00,00,40:f4:ec:a2:9f:b0,UNL-AIR
15,06,-75,00,2104,00,00,00:23:eb:7f:fb:63,UNL-Conference
16,06,-57,00,2104,00,00,40:f4:ec:a2:9f:b2,UNL-Wireless-Registration
17,06,-74,00,2104,00,00,40:f4:ec:61:2d:32,UNL-Wireless-Registration
18,06,-77,00,2104,00,00,a4:56:30:e9:e2:70,UNL-AIR
19,06,-72,00,2104,00,00,40:f4:ec:61:2d:33,UNL-Conference
20,06,-75,08,3104,28,00,00:23:eb:7f:fb:65,eduroam
21,06,-58,00,2104,00,00,40:f4:ec:a2:9f:b3,UNL-Conference
22,06,-57,08,3104,28,00,40:f4:ec:a2:9f:b5,eduroam
23,06,-73,08,3104,28,00,40:f4:ec:61:2d:31,UNL-AIR-E
24,06,-75,08,3104,28,00,00:23:eb:7f:fb:61,UNL-AIR-E
25,06,-84,00,2104,00,00,a4:56:30:e9:e2:72,UNL-Wireless-Registration
END:
2013/09/27 19:47:55

SCAN:Found 25
01,01,-67,08,3104,28,00,88:f0:77:36:54:15,eduroam
02,01,-73,08,3104,28,00,40:f4:ec:a2:98:65,eduroam
03,01,-67,00,2104,00,00,88:f0:77:36:54:12,UNL-Wireless-Registration
04,01,-73,00,2104,00,00,40:f4:ec:a2:98:60,UNL-AIR
05,01,-66,08,3104,28,00,88:f0:77:36:54:11,UNL-AIR-E
06,01,-67,00,2104,00,00,88:f0:77:36:54:13,UNL-Conference
07,01,-73,08,3104,28,00,40:f4:ec:a2:98:61,UNL-AIR-E
08,01,-79,08,3104,28,00,40:f4:ec:61:2d:c1,UNL-AIR-E
09,01,-68,00,2104,00,00,88:f0:77:36:54:10,UNL-AIR
10,01,-73,00,2104,00,00,40:f4:ec:a2:98:63,UNL-Conference
11,06,-57,00,2104,00,00,40:f4:ec:a2:9f:b0,UNL-AIR
12,06,-65,00,2104,00,00,00:23:eb:7f:ec:00,UNL-AIR
13,06,-65,08,3104,28,00,00:23:eb:7f:ec:01,UNL-AIR-E
14,06,-66,00,2104,00,00,00:23:eb:7f:ec:02,UNL-Wireless-Registration
15,06,-65,00,2104,00,00,00:23:eb:7f:ec:03,UNL-Conference
16,06,-57,00,2104,00,00,40:f4:ec:a2:9f:b2,UNL-Wireless-Registration
17,06,-66,08,3104,28,00,00:23:eb:7f:ec:05,eduroam
18,06,-57,08,3104,28,00,40:f4:ec:a2:9f:b1,UNL-AIR-E
19,06,-57,00,2104,00,00,40:f4:ec:a2:9f:b3,UNL-Conference
20,06,-57,08,3104,28,00,40:f4:ec:a2:9f:b5,eduroam
21,06,-74,00,2104,00,00,00:23:eb:7f:fb:60,UNL-AIR
22,11,-76,00,2104,00,00,00:23:eb:7f:f0:20,UNL-AIR
23,11,-71,00,2104,00,00,40:f4:ec:61:17:30,UNL-AIR
24,11,-63,00,2104,00,00,40:f4:ec:a2:a0:a2,UNL-Wireless-Registration
25,11,-71,00,2104,00,00,40:f4:ec:61:17:32,UNL-Wireless-Registration
END:
2013/09/27 19:48:14

SCAN:Found 25
01,01,-69,00,2104,00,00,88:f0:77:36:54:10,UNL-AIR
02,01,-72,00,2104,00,00,40:f4:ec:a2:98:60,UNL-AIR
03,01,-71,00,2104,00,00,40:f4:ec:a2:98:62,UNL-Wireless-Registration
04,01,-71,08,3104,28,00,40:f4:ec:a2:98:61,UNL-AIR-E
05,01,-69,00,2104,00,00,88:f0:77:36:54:13,UNL-Conference
06,01,-69,08,3104,28,00,88:f0:77:36:54:15,eduroam
07,01,-71,00,2104,00,00,40:f4:ec:a2:98:63,UNL-Conference
08,01,-71,08,3104,28,00,40:f4:ec:a2:98:65,eduroam
09,01,-69,00,2104,00,00,88:f0:77:36:54:12,UNL-Wireless-Registration
10,01,-80,00,2104,00,00,40:f4:ec:61:2d:c2,UNL-Wireless-Registration
11,01,-81,08,3104,28,00,40:f4:ec:61:2d:c5,eduroam
12,01,-67,08,3104,28,00,88:f0:77:36:54:11,UNL-AIR-E
13,06,-59,00,2104,00,00,40:f4:ec:a2:9f:b3,UNL-Conference
14,06,-63,00,2104,00,00,00:23:eb:7f:ec:02,UNL-Wireless-Registration
15,06,-59,08,3104,28,00,40:f4:ec:a2:9f:b5,eduroam
16,06,-75,00,2104,00,00,00:23:eb:7f:fb:60,UNL-AIR
17,06,-59,00,2104,00,00,40:f4:ec:a2:9f:b0,UNL-AIR
18,06,-64,08,3104,28,00,00:23:eb:7f:ec:01,UNL-AIR-E
19,06,-63,08,3104,28,00,00:23:eb:7f:ec:05,eduroam
20,06,-74,00,2104,00,00,00:23:eb:7f:fb:63,UNL-Conference
21,06,-74,08,3104,28,00,40:f4:ec:61:2d:35,eduroam
22,06,-75,08,3104,28,00,00:23:eb:7f:fb:65,eduroam
23,06,-63,00,2104,00,00,00:23:eb:7f:ec:03,UNL-Conference
24,06,-74,08,3104,28,00,00:23:eb:7f:fb:61,UNL-AIR-E
25,11,-69,00,2104,00,00,40:f4:ec:61:17:30,UNL-AIR
END:
2013/09/27 19:48:35

SCAN:Found 25
01,01,-67,00,2104,00,00,88:f0:77:36:54:12,UNL-Wireless-Registration
02,01,-72,00,2104,00,00,40:f4:ec:a2:98:60,UNL-AIR
03,01,-68,08,3104,28,00,88:f0:77:36:54:11,UNL-AIR-E
04,01,-71,00,2104,00,00,40:f4:ec:a2:98:62,UNL-Wireless-Registration
05,01,-67,00,2104,00,00,88:f0:77:36:54:13,UNL-Conference
06,01,-72,08,3104,28,00,40:f4:ec:a2:98:61,UNL-AIR-E
07,01,-67,00,2104,00,00,88:f0:77:36:54:10,UNL-AIR
08,01,-72,00,2104,00,00,40:f4:ec:a2:98:63,UNL-Conference
09,01,-72,08,3104,28,00,40:f4:ec:a2:98:65,eduroam
10,06,-58,00,2104,00,00,40:f4:ec:a2:9f:b2,UNL-Wireless-Registration
11,06,-64,08,3104,28,00,00:23:eb:7f:ec:05,eduroam
12,06,-58,08,3104,28,00,40:f4:ec:a2:9f:b1,UNL-AIR-E
13,06,-64,00,2104,00,00,00:23:eb:7f:ec:00,UNL-AIR
14,06,-74,00,2104,00,00,40:f4:ec:61:2d:30,UNL-AIR
15,06,-64,00,2104,00,00,00:23:eb:7f:ec:02,UNL-Wireless-Registration
16,06,-59,08,3104,28,00,40:f4:ec:a2:9f:b5,eduroam
17,06,-76,08,3104,28,00,00:23:eb:7f:fb:65,eduroam
18,06,-74,00,2104,00,00,00:23:eb:7f:fb:60,UNL-AIR
19,11,-63,00,2104,00,00,40:f4:ec:a2:a0:a0,UNL-AIR
20,11,-63,00,2104,00,00,40:f4:ec:a2:a0:a2,UNL-Wireless-Registration
21,11,-73,00,2104,00,00,40:f4:ec:61:17:32,UNL-Wireless-Registration
22,11,-63,00,2104,00,00,40:f4:ec:a2:a0:a3,UNL-Conference
23,11,-71,00,2104,00,00,40:f4:ec:61:17:33,UNL-Conference
24,11,-62,08,3104,28,00,40:f4:ec:a2:a0:a5,eduroam
25,11,-72,08,3104,28,00,40:f4:ec:61:17:35,eduroam
END:
2013/09/27 19:48:55

SCAN:Found 25
01,01,-70,00,2104,00,00,40:f4:ec:a2:98:62,UNL-Wireless-Registration
02,01,-78,00,2104,00,00,40:f4:ec:61:2d:c2,UNL-Wireless-Registration
03,01,-79,08,3104,28,00,40:f4:ec:61:2d:c1,UNL-AIR-E
04,01,-67,00,2104,00,00,88:f0:77:36:54:10,UNL-AIR
05,01,-67,00,2104,00,00,88:f0:77:36:54:13,UNL-Conference
06,01,-70,08,3104,28,00,40:f4:ec:a2:98:61,UNL-AIR-E
07,01,-67,08,3104,28,00,88:f0:77:36:54:15,eduroam
08,01,-70,00,2104,00,00,40:f4:ec:a2:98:63,UNL-Conference
09,01,-70,08,3104,28,00,40:f4:ec:a2:98:65,eduroam
10,01,-67,00,2104,00,00,88:f0:77:36:54:12,UNL-Wireless-Registration
11,01,-67,08,3104,28,00,88:f0:77:36:54:11,UNL-AIR-E
12,01,-79,00,2104,00,00,40:f4:ec:61:2d:c0,UNL-AIR
13,06,-58,00,2104,00,00,40:f4:ec:a2:9f:b3,UNL-Conference
14,06,-73,00,2104,00,00,40:f4:ec:61:2d:30,UNL-AIR
15,06,-66,00,2104,00,00,00:23:eb:7f:ec:02,UNL-Wireless-Registration
16,06,-58,08,3104,28,00,40:f4:ec:a2:9f:b5,eduroam
17,06,-75,00,2104,00,00,40:f4:ec:61:2d:32,UNL-Wireless-Registration
18,06,-58,00,2104,00,00,40:f4:ec:a2:9f:b0,UNL-AIR
19,06,-66,08,3104,28,00,00:23:eb:7f:ec:01,UNL-AIR-E
20,06,-74,08,3104,28,00,40:f4:ec:61:2d:31,UNL-AIR-E
21,06,-66,00,2104,00,00,00:23:eb:7f:ec:00,UNL-AIR
22,06,-58,00,2104,00,00,40:f4:ec:a2:9f:b2,UNL-Wireless-Registration
23,11,-70,00,2104,00,00,40:f4:ec:61:17:30,UNL-AIR
24,11,-63,00,2104,00,00,40:f4:ec:a2:a0:a0,UNL-AIR
25,11,-63,00,2104,00,00,40:f4:ec:a2:a0:a2,UNL-Wireless-Registration
END:
2013/09/27 19:49:14

SCAN:Found 25
01,01,-69,00,2104,00,00,40:f4:ec:a2:98:62,UNL-Wireless-Registration
02,01,-67,00,2104,00,00,88:f0:77:36:54:12,UNL-Wireless-Registration
03,01,-69,08,3104,28,00,40:f4:ec:a2:98:61,UNL-AIR-E
04,01,-67,08,3104,28,00,88:f0:77:36:54:11,UNL-AIR-E
05,01,-69,00,2104,00,00,40:f4:ec:a2:98:63,UNL-Conference
06,01,-67,00,2104,00,00,88:f0:77:36:54:13,UNL-Conference
07,01,-66,08,3104,28,00,88:f0:77:36:54:15,eduroam
08,01,-70,08,3104,28,00,40:f4:ec:a2:98:65,eduroam
09,01,-79,08,3104,28,00,40:f4:ec:61:2d:c1,UNL-AIR-E
10,01,-66,00,2104,00,00,88:f0:77:36:54:10,UNL-AIR
11,01,-79,08,3104,28,00,40:f4:ec:61:2d:c5,eduroam
12,06,-58,00,2104,00,00,40:f4:ec:a2:9f:b2,UNL-Wireless-Registration
13,06,-64,00,2104,00,00,00:23:eb:7f:ec:03,UNL-Conference
14,06,-58,08,3104,28,00,40:f4:ec:a2:9f:b1,UNL-AIR-E
15,06,-64,00,2104,00,00,00:23:eb:7f:ec:00,UNL-AIR
16,06,-75,00,2104,00,00,00:23:eb:7f:fb:63,UNL-Conference
17,06,-74,08,3104,28,00,40:f4:ec:61:2d:35,eduroam
18,06,-74,00,2104,00,00,00:23:eb:7f:fb:60,UNL-AIR
19,06,-64,08,3104,28,00,00:23:eb:7f:ec:01,UNL-AIR-E
20,06,-75,00,2104,00,00,00:23:eb:7f:fb:62,UNL-Wireless-Registration
21,06,-73,08,3104,28,00,40:f4:ec:61:2d:31,UNL-AIR-E
22,06,-75,08,3104,28,00,00:23:eb:7f:fb:61,UNL-AIR-E
23,06,-75,08,3104,28,00,00:23:eb:7f:fb:65,eduroam
24,06,-58,00,2104,00,00,40:f4:ec:a2:9f:b3,UNL-Conference
25,06,-58,08,3104,28,00,40:f4:ec:a2:9f:b5,eduroam
END:
2013/09/27 19:49:35

SCAN:Found 25
01,01,-67,08,3104,28,00,88:f0:77:36:54:11,UNL-AIR-E
02,01,-67,00,2104,00,00,88:f0:77:36:54:13,UNL-Conference
03,01,-67,08,3104,28,00,88:f0:77:36:54:15,eduroam
04,01,-70,00,2104,00,00,40:f4:ec:a2:98:63,UNL-Conference
05,01,-70,08,3104,28,00,40:f4:ec:a2:98:65,eduroam
06,01,-71,08,3104,28,00,40:f4:ec:a2:98:61,UNL-AIR-E
07,01,-78,08,3104,28,00,40:f4:ec:61:2d:c1,UNL-AIR-E
08,01,-67,00,2104,00,00,88:f0:77:36:54:12,UNL-Wireless-Registration
09,01,-71,00,2104,00,00,40:f4:ec:a2:98:62,UNL-Wireless-Registration
10,01,-68,00,2104,00,00,88:f0:77:36:54:10,UNL-AIR
11,01,-78,08,3104,28,00,40:f4:ec:61:2d:c5,eduroam
12,01,-71,00,2104,00,00,40:f4:ec:a2:98:60,UNL-AIR
13,06,-64,00,2104,00,00,00:23:eb:7f:ec:02,UNL-Wireless-Registration
14,06,-58,08,3104,28,00,40:f4:ec:a2:9f:b5,eduroam
15,06,-63,08,3104,28,00,00:23:eb:7f:ec:01,UNL-AIR-E
16,06,-74,00,2104,00,00,00:23:eb:7f:fb:62,UNL-Wireless-Registration
17,06,-74,08,3104,28,00,40:f4:ec:61:2d:31,UNL-AIR-E
18,06,-58,00,2104,00,00,40:f4:ec:a2:9f:b2,UNL-Wireless-Registration
19,06,-63,00,2104,00,00,00:23:eb:7f:ec:03,UNL-Conference
20,06,-73,08,3104,28,00,00:23:eb:7f:fb:61,UNL-AIR-E
21,06,-73,00,2104,00,00,40:f4:ec:61:2d:33,UNL-Conference
22,06,-64,00,2104,00,00,00:23:eb:7f:ec:00,UNL-AIR
23,06,-58,00,2104,00,00,40:f4:ec:a2:9f:b3,UNL-Conference
24,06,-75,00,2104,00,00,00:23:eb:7f:fb:60,UNL-AIR
25,11,-70,00,2104,00,00,40:f4:ec:61:17:30,UNL-AIR
END:
2013/09/27 19:49:55

SCAN:Found 25
01,01,-70,00,2104,00,00,40:f4:ec:a2:98:63,UNL-Conference
02,01,-71,08,3104,28,00,40:f4:ec:a2:98:61,UNL-AIR-E
03,01,-66,00,2104,00,00,88:f0:77:36:54:12,UNL-Wireless-Registration
04,01,-66,08,3104,28,00,88:f0:77:36:54:11,UNL-AIR-E
05,01,-71,08,3104,28,00,40:f4:ec:a2:98:65,eduroam
06,01,-66,00,2104,00,00,88:f0:77:36:54:13,UNL-Conference
07,01,-77,00,2104,00,00,40:f4:ec:61:2d:c3,UNL-Conference
08,01,-66,08,3104,28,00,88:f0:77:36:54:15,eduroam
09,01,-79,08,3104,28,00,40:f4:ec:61:2d:c5,eduroam
10,01,-71,00,2104,00,00,40:f4:ec:a2:98:60,UNL-AIR
11,01,-71,00,2104,00,00,40:f4:ec:a2:98:62,UNL-Wireless-Registration
12,01,-79,00,2104,00,00,40:f4:ec:61:2d:c2,UNL-Wireless-Registration
13,06,-64,00,2104,00,00,00:23:eb:7f:ec:00,UNL-AIR
14,06,-64,00,2104,00,00,00:23:eb:7f:ec:02,UNL-Wireless-Registration
15,06,-75,00,2104,00,00,40:f4:ec:61:2d:30,UNL-AIR
16,06,-64,08,3104,28,00,00:23:eb:7f:ec:01,UNL-AIR-E
17,06,-64,00,2104,00,00,00:23:eb:7f:ec:03,UNL-Conference
18,06,-58,00,2104,00,00,40:f4:ec:a2:9f:b0,UNL-AIR
19,06,-58,00,2104,00,00,40:f4:ec:a2:9f:b2,UNL-Wireless-Registration
20,06,-63,08,3104,28,00,00:23:eb:7f:ec:05,eduroam
21,06,-76,00,2104,00,00,40:f4:ec:61:2d:33,UNL-Conference
22,06,-58,08,3104,28,00,40:f4:ec:a2:9f:b1,UNL-AIR-E
23,06,-74,08,3104,28,00,00:23:eb:7f:fb:65,eduroam
24,06,-58,00,2104,00,00,40:f4:ec:a2:9f:b3,UNL-Conference
25,06,-75,08,3104,28,00,40:f4:ec:61:2d:31,UNL-AIR-E
END:
2013/09/27 19:50:15

SCAN:Found 25
01,01,-71,00,2104,00,00,40:f4:ec:a2:98:63,UNL-Conference
02,01,-69,08,3104,28,00,40:f4:ec:a2:98:65,eduroam
03,01,-68,00,2104,00,00,88:f0:77:36:54:13,UNL-Conference
04,01,-71,00,2104,00,00,40:f4:ec:a2:98:62,UNL-Wireless-Registration
05,01,-68,08,3104,28,00,88:f0:77:36:54:15,eduroam
06,01,-80,00,2104,00,00,40:f4:ec:61:2d:c2,UNL-Wireless-Registration
07,01,-70,08,3104,28,00,40:f4:ec:a2:98:61,UNL-AIR-E
08,01,-68,00,2104,00,00,88:f0:77:36:54:10,UNL-AIR
09,01,-68,00,2104,00,00,88:f0:77:36:54:12,UNL-Wireless-Registration
10,01,-68,08,3104,28,00,88:f0:77:36:54:11,UNL-AIR-E
11,01,-77,00,2104,00,00,40:f4:ec:61:2d:c0,UNL-AIR
12,01,-70,00,2104,00,00,40:f4:ec:a2:98:60,UNL-AIR
13,06,-72,00,2104,00,00,40:f4:ec:61:2d:30,UNL-AIR
14,06,-63,00,2104,00,00,00:23:eb:7f:ec:00,UNL-AIR
15,06,-59,00,2104,00,00,40:f4:ec:a2:9f:b3,UNL-Conference
16,06,-59,00,2104,00,00,40:f4:ec:a2:9f:b0,UNL-AIR
17,06,-72,08,3104,28,00,40:f4:ec:61:2d:31,UNL-AIR-E
18,06,-59,00,2104,00,00,40:f4:ec:a2:9f:b2,UNL-Wireless-Registration
19,06,-63,00,2104,00,00,00:23:eb:7f:ec:03,UNL-Conference
20,06,-63,00,2104,00,00,00:23:eb:7f:ec:02,UNL-Wireless-Registration
21,06,-59,08,3104,28,00,40:f4:ec:a2:9f:b5,eduroam
22,11,-62,00,2104,00,00,40:f4:ec:a2:a0:a0,UNL-AIR
23,11,-71,00,2104,00,00,40:f4:ec:61:17:30,UNL-AIR
24,11,-62,00,2104,00,00,40:f4:ec:a2:a0:a2,UNL-Wireless-Registration
25,11,-70,00,2104,00,00,40:f4:ec:61:17:32,UNL-Wireless-Registration
END:
2013/09/27 19:50:33

SCAN:Found 25
01,01,-69,08,3104,28,00,40:f4:ec:a2:98:61,UNL-AIR-E
02,01,-70,00,2104,00,00,40:f4:ec:a2:98:63,UNL-Conference
03,01,-67,08,3104,28,00,88:f0:77:36:54:11,UNL-AIR-E
04,01,-70,08,3104,28,00,40:f4:ec:a2:98:65,eduroam
05,01,-66,00,2104,00,00,88:f0:77:36:54:13,UNL-Conference
06,01,-66,00,2104,00,00,88:f0:77:36:54:12,UNL-Wireless-Registration
07,01,-79,08,3104,28,00,40:f4:ec:61:2d:c5,eduroam
08,01,-71,00,2104,00,00,40:f4:ec:a2:98:60,UNL-AIR
09,01,-71,00,2104,00,00,40:f4:ec:a2:98:62,UNL-Wireless-Registration
10,01,-67,08,3104,28,00,88:f0:77:36:54:15,eduroam
11,01,-67,00,2104,00,00,88:f0:77:36:54:10,UNL-AIR
12,01,-79,00,2104,00,00,40:f4:ec:61:2d:c3,UNL-Conference
13,06,-63,00,2104,00,00,00:23:eb:7f:ec:00,UNL-AIR
14,06,-58,00,2104,00,00,40:f4:ec:a2:9f:b0,UNL-AIR
15,06,-73,00,2104,00,00,40:f4:ec:61:2d:30,UNL-AIR
16,06,-63,00,2104,00,00,00:23:eb:7f:ec:02,UNL-Wireless-Registration
17,06,-63,08,3104,28,00,00:23:eb:7f:ec:01,UNL-AIR-E
18,06,-58,00,2104,00,00,40:f4:ec:a2:9f:b2,UNL-Wireless-Registration
19,06,-63,00,2104,00,00,00:23:eb:7f:ec:03,UNL-Conference
20,06,-58,08,3104,28,00,40:f4:ec:a2:9f:b1,UNL-AIR-E
21,06,-63,08,3104,28,00,00:23:eb:7f:ec:05,eduroam
22,06,-75,08,3104,28,00,00:23:eb:7f:fb:61,UNL-AIR-E
23,06,-75,00,2104,00,00,00:23:eb:7f:fb:63,UNL-Conference
24,06,-58,00,2104,00,00,40:f4:ec:a2:9f:b3,UNL-Conference
25,06,-58,08,3104,28,00,40:f4:ec:a2:9f:b5,eduroam
END:
2013/09/27 19:50:55

SCAN:Found 25
01,01,-71,00,2104,00,00,40:f4:ec:a2:98:62,UNL-Wireless-Registration
02,01,-66,00,2104,00,00,88:f0:77:36:54:13,UNL-Conference
03,01,-71,08,3104,28,00,40:f4:ec:a2:98:61,UNL-AIR-E
04,01,-67,08,3104,28,00,88:f0:77:36:54:15,eduroam
05,01,-66,00,2104,00,00,88:f0:77:36:54:10,UNL-AIR
06,01,-72,00,2104,00,00,40:f4:ec:a2:98:63,UNL-Conference
07,01,-71,08,3104,28,00,40:f4:ec:a2:98:65,eduroam
08,01,-66,00,2104,00,00,88:f0:77:36:54:12,UNL-Wireless-Registration
09,01,-71,00,2104,00,00,40:f4:ec:a2:98:60,UNL-AIR
10,01,-66,08,3104,28,00,88:f0:77:36:54:11,UNL-AIR-E
11,06,-64,00,2104,00,00,00:23:eb:7f:ec:00,UNL-AIR
12,06,-75,00,2104,00,00,00:23:eb:7f:fb:63,UNL-Conference
13,06,-73,08,3104,28,00,40:f4:ec:61:2d:35,eduroam
14,06,-75,08,3104,28,00,00:23:eb:7f:fb:65,eduroam
15,06,-75,00,2104,00,00,00:23:eb:7f:fb:60,UNL-AIR
16,06,-58,00,2104,00,00,40:f4:ec:a2:9f:b2,UNL-Wireless-Registration
17,06,-74,08,3104,28,00,40:f4:ec:61:2d:31,UNL-AIR-E
18,06,-64,00,2104,00,00,00:23:eb:7f:ec:03,UNL-Conference
19,06,-63,08,3104,28,00,00:23:eb:7f:ec:05,eduroam
20,06,-59,08,3104,28,00,40:f4:ec:a2:9f:b1,UNL-AIR-E
21,06,-58,00,2104,00,00,40:f4:ec:a2:9f:b3,UNL-Conference
22,06,-74,00,2104,00,00,40:f4:ec:61:2d:30,UNL-AIR
23,06,-63,00,2104,00,00,00:23:eb:7f:ec:02,UNL-Wireless-Registration
24,11,-61,00,2104,00,00,40:f4:ec:a2:a0:a3,UNL-Conference
25,11,-71,00,2104,00,00,40:f4:ec:61:17:30,UNL-AIR
END:
2013/09/27 19:51:14

SCAN:Found 25
01,01,-67,08,3104,28,00,88:f0:77:36:54:15,eduroam
02,01,-73,00,2104,00,00,40:f4:ec:a2:98:63,UNL-Conference
03,01,-73,08,3104,28,00,40:f4:ec:a2:98:65,eduroam
04,01,-66,00,2104,00,00,88:f0:77:36:54:12,UNL-Wireless-Registration
05,01,-72,00,2104,00,00,40:f4:ec:a2:98:60,UNL-AIR
06,01,-67,08,3104,28,00,88:f0:77:36:54:11,UNL-AIR-E
07,01,-72,00,2104,00,00,40:f4:ec:a2:98:62,UNL-Wireless-Registration
08,01,-66,00,2104,00,00,88:f0:77:36:54:13,UNL-Conference
09,01,-72,08,3104,28,00,40:f4:ec:a2:98:61,UNL-AIR-E
10,01,-66,00,2104,00,00,88:f0:77:36:54:10,UNL-AIR
11,06,-58,00,2104,00,00,40:f4:ec:a2:9f:b0,UNL-AIR
12,06,-64,00,2104,00,00,00:23:eb:7f:ec:02,UNL-Wireless-Registration
13,06,-58,00,2104,00,00,40:f4:ec:a2:9f:b2,UNL-Wireless-Registration
14,06,-64,08,3104,28,00,00:23:eb:7f:ec:01,UNL-AIR-E
15,06,-58,08,3104,28,00,40:f4:ec:a2:9f:b1,UNL-AIR-E
16,06,-63,00,2104,00,00,00:23:eb:7f:ec:03,UNL-Conference
17,06,-64,08,3104,28,00,00:23:eb:7f:ec:05,eduroam
18,06,-59,00,2104,00,00,40:f4:ec:a2:9f:b3,UNL-Conference
19,06,-75,00,2104,00,00,00:23:eb:7f:fb:62,UNL-Wireless-Registration
20,06,-73,08,3104,28,00,40:f4:ec:61:2d:31,UNL-AIR-E
21,06,-75,08,3104,28,00,00:23:eb:7f:fb:61,UNL-AIR-E
22,06,-73,00,2104,00,00,40:f4:ec:61:2d:33,UNL-Conference
23,06,-63,00,2104,00,00,00:23:eb:7f:ec:00,UNL-AIR
24,06,-75,00,2104,00,00,00:23:eb:7f:fb:63,UNL-Conference
25,06,-73,08,3104,28,00,40:f4:ec:61:2d:35,eduroam
END:
