2013/09/27 19:45:06

SCAN:Found 1
01,06,-70,00,2104,00,00,00:19:a9:b5:15:e0,
END:
2013/09/27 19:45:25

SCAN:Found 1
01,06,-69,00,2104,00,00,00:19:a9:b5:15:e0,
END:
2013/09/27 19:45:47

SCAN:Found 5
01,06,-78,08,3104,28,00,1c:aa:07:c7:8c:22,UNL-AIR-E
02,06,-76,00,2104,00,00,1c:aa:07:c7:8c:21,UNL-AIR
03,06,-69,00,2104,00,00,00:19:a9:b5:15:e0,
04,06,-77,00,2104,00,00,1c:aa:07:c7:8c:23,UNL-Conference
05,10,-76,00,0200,00,00,02:2b:5b:d7:53:48,HP77D1F2
END:
2013/09/27 19:46:06

SCAN:Found 2
01,06,-66,00,2104,00,00,00:19:a9:b5:15:e0,
02,10,-74,00,0200,00,00,02:2b:5b:d7:53:48,HP77D1F2
END:
2013/09/27 19:46:29

SCAN:Found 8
01,06,-78,00,2104,00,00,1c:aa:07:c7:8c:21,UNL-AIR
02,06,-80,08,3104,28,00,1c:aa:07:c7:9a:c5,eduroam
03,06,-76,08,3104,28,00,1c:aa:07:c7:8c:25,eduroam
04,06,-74,00,2104,00,00,00:19:a9:b5:15:e0,
05,10,-74,00,0200,00,00,02:2b:5b:d7:53:48,HP77D1F2
06,11,-79,00,2104,00,00,00:26:cb:40:ea:20,UNL-Wireless-Registration
07,11,-78,00,2104,00,00,00:26:cb:40:ea:21,UNL-AIR
08,11,-77,08,3104,28,00,00:26:cb:40:ea:22,UNL-AIR-E
END:
2013/09/27 19:46:46

SCAN:Found 2
01,06,-76,00,2104,00,00,00:19:a9:b5:15:e0,
02,10,-73,00,0200,00,00,02:2b:5b:d7:53:48,HP77D1F2
END:
2013/09/27 19:47:06

SCAN:Found 3
01,06,-79,00,2104,00,00,1c:aa:07:c7:8c:21,UNL-AIR
02,06,-69,00,2104,00,00,00:19:a9:b5:15:e0,
03,10,-74,00,0200,00,00,02:2b:5b:d7:53:48,HP77D1F2
END:
2013/09/27 19:47:25

SCAN:Found 1
01,06,-61,00,2104,00,00,00:19:a9:b5:15:e0,
END:
2013/09/27 19:47:45

SCAN:Found 1
01,06,-59,00,2104,00,00,00:19:a9:b5:15:e0,
END:
2013/09/27 19:48:05

SCAN:Found 1
01,06,-63,00,2104,00,00,00:19:a9:b5:15:e0,
END:
2013/09/27 19:48:26

SCAN:Found 2
01,06,-73,00,2104,00,00,00:19:a9:b5:15:e0,
02,10,-76,00,0200,00,00,02:2b:5b:d7:53:48,HP77D1F2
END:
