2013/09/27 20:21:27

SCAN:Found 6
01,06,-54,00,2104,00,00,b4:e9:b0:9e:5d:30,UNL-AIR
02,06,-54,00,2104,00,00,b4:e9:b0:9e:5d:34,UNL-Conference
03,06,-55,08,3104,28,00,b4:e9:b0:9e:5d:32,UNL-AIR-E
04,06,-54,08,3104,28,00,b4:e9:b0:9e:5d:36,eduroam
05,06,-56,00,2104,00,00,b4:e9:b0:9e:5d:31,UNL-Wireless-Registration
06,10,-81,00,0204,00,00,02:2c:3c:dd:89:d8,HP8CA287
END:
2013/09/27 20:21:47

SCAN:Found 8
01,06,-56,00,2104,00,00,b4:e9:b0:9e:5d:30,UNL-AIR
02,06,-56,00,2104,00,00,b4:e9:b0:9e:5d:34,UNL-Conference
03,06,-56,08,3104,28,00,b4:e9:b0:9e:5d:32,UNL-AIR-E
04,06,-56,08,3104,28,00,b4:e9:b0:9e:5d:36,eduroam
05,06,-55,00,2104,00,00,b4:e9:b0:9e:5d:31,UNL-Wireless-Registration
06,06,-78,00,2104,00,00,b4:e9:b0:9e:5f:d1,UNL-Wireless-Registration
07,10,-81,00,0204,00,00,02:2c:3c:dd:89:d8,HP8CA287
08,11,-76,00,2104,00,00,00:1c:58:6d:43:91,UNL-Wireless-Registration
END:
2013/09/27 20:22:05

SCAN:Found 5
01,06,-60,00,2104,00,00,b4:e9:b0:9e:5d:31,UNL-Wireless-Registration
02,06,-60,00,2104,00,00,b4:e9:b0:9e:5d:30,UNL-AIR
03,06,-60,00,2104,00,00,b4:e9:b0:9e:5d:34,UNL-Conference
04,06,-59,08,3104,28,00,b4:e9:b0:9e:5d:32,UNL-AIR-E
05,06,-57,08,3104,28,00,b4:e9:b0:9e:5d:36,eduroam
END:
2013/09/27 20:22:27

SCAN:Found 7
01,06,-64,08,3104,28,00,b4:e9:b0:9e:5d:32,UNL-AIR-E
02,06,-63,00,2104,00,00,b4:e9:b0:9e:5d:30,UNL-AIR
03,06,-64,00,2104,00,00,b4:e9:b0:9e:5d:34,UNL-Conference
04,06,-62,00,2104,00,00,b4:e9:b0:9e:5d:31,UNL-Wireless-Registration
05,11,-76,00,2104,00,00,00:1c:58:6d:43:91,UNL-Wireless-Registration
06,11,-73,00,2104,00,00,00:1c:58:6d:43:94,UNL-Conference
07,11,-75,00,2104,00,00,00:1c:58:6d:43:90,UNL-AIR
END:
2013/09/27 20:22:47

SCAN:Found 7
01,06,-55,00,2104,00,00,b4:e9:b0:9e:5d:30,UNL-AIR
02,06,-56,00,2104,00,00,b4:e9:b0:9e:5d:34,UNL-Conference
03,06,-56,08,3104,28,00,b4:e9:b0:9e:5d:32,UNL-AIR-E
04,06,-75,08,3104,28,00,b4:e9:b0:9e:5f:d2,UNL-AIR-E
05,06,-75,08,3104,28,00,b4:e9:b0:9e:5f:d6,eduroam
06,06,-73,00,2104,00,00,b4:e9:b0:9e:5f:d1,UNL-Wireless-Registration
07,06,-74,00,2104,00,00,b4:e9:b0:9e:5f:d4,UNL-Conference
END:
2013/09/27 20:23:05

SCAN:Found 5
01,06,-57,00,2104,00,00,b4:e9:b0:9e:5d:30,UNL-AIR
02,06,-58,00,2104,00,00,b4:e9:b0:9e:5d:34,UNL-Conference
03,06,-58,08,3104,28,00,b4:e9:b0:9e:5d:32,UNL-AIR-E
04,06,-58,08,3104,28,00,b4:e9:b0:9e:5d:36,eduroam
05,06,-58,00,2104,00,00,b4:e9:b0:9e:5d:31,UNL-Wireless-Registration
END:
2013/09/27 20:23:27

SCAN:Found 8
01,06,-56,00,2104,00,00,b4:e9:b0:9e:5d:30,UNL-AIR
02,06,-56,00,2104,00,00,b4:e9:b0:9e:5d:34,UNL-Conference
03,06,-56,08,3104,28,00,b4:e9:b0:9e:5d:32,UNL-AIR-E
04,06,-75,00,2104,00,00,b4:e9:b0:9e:5f:d4,UNL-Conference
05,06,-56,08,3104,28,00,b4:e9:b0:9e:5d:36,eduroam
06,06,-76,00,2104,00,00,b4:e9:b0:9e:5f:d1,UNL-Wireless-Registration
07,06,-76,08,3104,28,00,b4:e9:b0:9e:5f:d2,UNL-AIR-E
08,06,-56,00,2104,00,00,b4:e9:b0:9e:5d:31,UNL-Wireless-Registration
END:
2013/09/27 20:23:46

SCAN:Found 6
01,06,-55,08,3104,28,00,b4:e9:b0:9e:5d:36,eduroam
02,06,-55,00,2104,00,00,b4:e9:b0:9e:5d:31,UNL-Wireless-Registration
03,06,-54,00,2104,00,00,b4:e9:b0:9e:5d:30,UNL-AIR
04,06,-55,00,2104,00,00,b4:e9:b0:9e:5d:34,UNL-Conference
05,06,-55,08,3104,28,00,b4:e9:b0:9e:5d:32,UNL-AIR-E
06,06,-79,08,3104,28,00,b4:e9:b0:9e:5f:d6,eduroam
END:
2013/09/27 20:24:07

SCAN:Found 7
01,06,-59,00,2104,00,00,b4:e9:b0:9e:5d:30,UNL-AIR
02,06,-58,00,2104,00,00,b4:e9:b0:9e:5d:34,UNL-Conference
03,06,-59,08,3104,28,00,b4:e9:b0:9e:5d:32,UNL-AIR-E
04,06,-59,08,3104,28,00,b4:e9:b0:9e:5d:36,eduroam
05,11,-74,00,2104,00,00,00:1c:58:6d:43:90,UNL-AIR
06,11,-74,00,2104,00,00,00:1c:58:6d:43:91,UNL-Wireless-Registration
07,11,-74,08,3104,28,00,00:1c:58:6d:43:92,UNL-AIR-E
END:
2013/09/27 20:24:26

SCAN:Found 6
01,06,-55,08,3104,28,00,b4:e9:b0:9e:5d:36,eduroam
02,06,-55,00,2104,00,00,b4:e9:b0:9e:5d:31,UNL-Wireless-Registration
03,06,-54,00,2104,00,00,b4:e9:b0:9e:5d:30,UNL-AIR
04,06,-54,00,2104,00,00,b4:e9:b0:9e:5d:34,UNL-Conference
05,06,-55,08,3104,28,00,b4:e9:b0:9e:5d:32,UNL-AIR-E
06,11,-75,00,2104,00,00,00:1c:58:6d:43:94,UNL-Conference
END:
