2013/09/27 20:54:24

SCAN:Found 25
01,01,-59,08,3104,28,00,1c:aa:07:c7:88:b5,eduroam
02,01,-58,00,2104,00,00,00:25:84:24:79:70,UNL-Wireless-Registration
03,01,-59,00,2104,00,00,1c:aa:07:c7:88:b0,UNL-Wireless-Registration
04,01,-69,00,2104,00,00,88:f0:77:36:67:80,UNL-Wireless-Registration
05,01,-59,08,3104,28,00,1c:aa:07:c7:88:b2,UNL-AIR-E
06,01,-57,08,3104,28,00,00:25:84:24:79:75,eduroam
07,01,-72,00,2104,00,00,b4:e9:b0:59:ed:d3,UNL-Conference
08,01,-71,00,2104,00,00,88:f0:77:36:67:81,UNL-AIR
09,01,-71,00,2104,00,00,88:f0:77:36:67:83,UNL-Conference
10,01,-57,00,2104,00,00,00:25:84:24:79:71,UNL-AIR
11,01,-58,08,3104,28,00,00:25:84:24:79:72,UNL-AIR-E
12,01,-72,00,2104,00,00,b4:e9:b0:59:ed:d0,UNL-Wireless-Registration
13,01,-59,00,2104,00,00,1c:aa:07:c7:88:b1,UNL-AIR
14,06,-55,00,2104,00,00,1c:aa:07:c7:88:10,UNL-Wireless-Registration
15,06,-54,08,3104,28,00,1c:aa:07:c7:88:12,UNL-AIR-E
16,06,-54,00,2104,00,00,1c:aa:07:c7:88:11,UNL-AIR
17,06,-54,00,2104,00,00,1c:aa:07:c7:88:13,UNL-Conference
18,06,-54,08,3104,28,00,1c:aa:07:c7:88:15,eduroam
19,06,-69,00,2104,00,00,1c:aa:07:c7:89:d0,UNL-Wireless-Registration
20,06,-69,00,2104,00,00,1c:aa:07:c7:89:d3,UNL-Conference
21,06,-68,08,3104,28,00,1c:aa:07:c7:89:d5,eduroam
22,06,-70,00,2104,00,00,00:25:84:24:46:f3,UNL-Conference
23,06,-71,08,3104,28,00,00:25:84:24:46:f5,eduroam
24,06,-68,08,3104,28,00,1c:aa:07:c7:89:d2,UNL-AIR-E
25,06,-72,00,2104,00,00,00:25:84:24:46:f1,UNL-AIR
END:
2013/09/27 20:54:44

SCAN:Found 25
01,01,-59,00,2104,00,00,00:25:84:24:79:70,UNL-Wireless-Registration
02,01,-59,08,3104,28,00,00:25:84:24:79:72,UNL-AIR-E
03,01,-60,00,2104,00,00,1c:aa:07:c7:88:b0,UNL-Wireless-Registration
04,01,-58,00,2104,00,00,00:25:84:24:79:71,UNL-AIR
05,01,-60,08,3104,28,00,1c:aa:07:c7:88:b2,UNL-AIR-E
06,01,-63,00,2104,00,00,88:f0:77:36:67:83,UNL-Conference
07,01,-71,08,3104,28,00,b4:e9:b0:59:ed:d2,UNL-AIR-E
08,01,-63,08,3104,28,00,88:f0:77:36:67:85,eduroam
09,01,-60,00,2104,00,00,1c:aa:07:c7:88:b3,UNL-Conference
10,01,-60,08,3104,28,00,1c:aa:07:c7:88:b5,eduroam
11,01,-63,00,2104,00,00,88:f0:77:36:67:80,UNL-Wireless-Registration
12,01,-58,00,2104,00,00,00:25:84:24:79:73,UNL-Conference
13,01,-63,08,3104,28,00,88:f0:77:36:67:82,UNL-AIR-E
14,01,-63,00,2104,00,00,88:f0:77:36:67:81,UNL-AIR
15,01,-70,00,2104,00,00,b4:e9:b0:59:ed:d0,UNL-Wireless-Registration
16,01,-60,00,2104,00,00,1c:aa:07:c7:88:b1,UNL-AIR
17,01,-59,08,3104,28,00,00:25:84:24:79:75,eduroam
18,01,-70,00,2104,00,00,b4:e9:b0:59:ed:d3,UNL-Conference
19,06,-60,00,2104,00,00,1c:aa:07:c7:88:10,UNL-Wireless-Registration
20,06,-60,08,3104,28,00,1c:aa:07:c7:88:12,UNL-AIR-E
21,06,-60,00,2104,00,00,1c:aa:07:c7:88:11,UNL-AIR
22,06,-70,08,3104,28,00,00:25:84:24:46:f5,eduroam
23,06,-60,00,2104,00,00,1c:aa:07:c7:88:13,UNL-Conference
24,06,-60,08,3104,28,00,1c:aa:07:c7:88:15,eduroam
25,06,-70,00,2104,00,00,00:25:84:24:46:f3,UNL-Conference
END:
2013/09/27 20:55:03

SCAN:Found 25
01,01,-56,00,2104,00,00,00:25:84:24:79:70,UNL-Wireless-Registration
02,01,-65,08,3104,28,00,88:f0:77:36:67:82,UNL-AIR-E
03,01,-57,08,3104,28,00,1c:aa:07:c7:88:b2,UNL-AIR-E
04,01,-56,08,3104,28,00,1c:aa:07:c7:88:b5,eduroam
05,01,-57,00,2104,00,00,1c:aa:07:c7:88:b1,UNL-AIR
06,01,-57,00,2104,00,00,1c:aa:07:c7:88:b3,UNL-Conference
07,01,-65,00,2104,00,00,88:f0:77:36:67:83,UNL-Conference
08,01,-55,08,3104,28,00,00:25:84:24:79:72,UNL-AIR-E
09,01,-65,08,3104,28,00,88:f0:77:36:67:85,eduroam
10,01,-55,00,2104,00,00,00:25:84:24:79:71,UNL-AIR
11,01,-54,00,2104,00,00,00:25:84:24:79:73,UNL-Conference
12,01,-55,08,3104,28,00,00:25:84:24:79:75,eduroam
13,01,-71,00,2104,00,00,b4:e9:b0:59:ed:d3,UNL-Conference
14,01,-77,08,3104,28,00,88:f0:77:36:74:f5,eduroam
15,06,-71,00,2104,00,00,1c:aa:07:c7:89:d0,UNL-Wireless-Registration
16,06,-57,00,2104,00,00,1c:aa:07:c7:88:10,UNL-Wireless-Registration
17,06,-57,08,3104,28,00,1c:aa:07:c7:88:12,UNL-AIR-E
18,06,-58,00,2104,00,00,1c:aa:07:c7:88:11,UNL-AIR
19,06,-58,00,2104,00,00,1c:aa:07:c7:88:13,UNL-Conference
20,06,-57,08,3104,28,00,1c:aa:07:c7:88:15,eduroam
21,06,-71,08,3104,28,00,1c:aa:07:c7:89:d5,eduroam
22,06,-70,08,3104,28,00,1c:aa:07:c7:89:d2,UNL-AIR-E
23,06,-72,00,2104,00,00,00:25:84:24:46:f1,UNL-AIR
24,06,-71,00,2104,00,00,00:25:84:24:46:f3,UNL-Conference
25,06,-70,00,2104,00,00,1c:aa:07:c7:89:d3,UNL-Conference
END:
2013/09/27 20:55:23

SCAN:Found 25
01,01,-54,00,2104,00,00,00:25:84:24:79:70,UNL-Wireless-Registration
02,01,-63,00,2104,00,00,88:f0:77:36:67:80,UNL-Wireless-Registration
03,01,-55,00,2104,00,00,00:25:84:24:79:71,UNL-AIR
04,01,-63,08,3104,28,00,88:f0:77:36:67:82,UNL-AIR-E
05,01,-58,08,3104,28,00,1c:aa:07:c7:88:b2,UNL-AIR-E
06,01,-58,00,2104,00,00,1c:aa:07:c7:88:b1,UNL-AIR
07,01,-55,00,2104,00,00,00:25:84:24:79:73,UNL-Conference
08,01,-63,00,2104,00,00,88:f0:77:36:67:81,UNL-AIR
09,01,-54,08,3104,28,00,00:25:84:24:79:75,eduroam
10,01,-64,00,2104,00,00,88:f0:77:36:67:83,UNL-Conference
11,01,-73,08,3104,28,00,b4:e9:b0:59:ed:d2,UNL-AIR-E
12,01,-64,08,3104,28,00,88:f0:77:36:67:85,eduroam
13,01,-57,00,2104,00,00,1c:aa:07:c7:88:b3,UNL-Conference
14,01,-57,08,3104,28,00,1c:aa:07:c7:88:b5,eduroam
15,01,-57,00,2104,00,00,1c:aa:07:c7:88:b0,UNL-Wireless-Registration
16,06,-72,00,2104,00,00,00:25:84:24:46:f3,UNL-Conference
17,06,-61,00,2104,00,00,1c:aa:07:c7:88:13,UNL-Conference
18,06,-68,00,2104,00,00,1c:aa:07:c7:89:d3,UNL-Conference
19,06,-61,08,3104,28,00,1c:aa:07:c7:88:15,eduroam
20,06,-78,00,2104,00,00,00:25:84:24:78:a1,UNL-AIR
21,06,-68,08,3104,28,00,1c:aa:07:c7:89:d5,eduroam
22,06,-72,08,3104,28,00,00:25:84:24:46:f2,UNL-AIR-E
23,06,-62,08,3104,28,00,1c:aa:07:c7:88:12,UNL-AIR-E
24,06,-69,08,3104,28,00,1c:aa:07:c7:89:d2,UNL-AIR-E
25,06,-73,00,2104,00,00,00:25:84:24:46:f1,UNL-AIR
END:
2013/09/27 20:55:45

SCAN:Found 25
01,01,-58,00,2104,00,00,00:25:84:24:79:70,UNL-Wireless-Registration
02,01,-63,00,2104,00,00,88:f0:77:36:67:80,UNL-Wireless-Registration
03,01,-58,00,2104,00,00,1c:aa:07:c7:88:b0,UNL-Wireless-Registration
04,01,-58,08,3104,28,00,00:25:84:24:79:75,eduroam
05,01,-58,08,3104,28,00,1c:aa:07:c7:88:b2,UNL-AIR-E
06,01,-58,08,3104,28,00,00:25:84:24:79:72,UNL-AIR-E
07,01,-77,00,2104,00,00,b4:e9:b0:59:ed:d0,UNL-Wireless-Registration
08,01,-58,00,2104,00,00,1c:aa:07:c7:88:b1,UNL-AIR
09,01,-77,08,3104,28,00,88:f0:77:36:74:f5,eduroam
10,01,-63,00,2104,00,00,88:f0:77:36:67:83,UNL-Conference
11,01,-63,08,3104,28,00,88:f0:77:36:67:82,UNL-AIR-E
12,06,-70,00,2104,00,00,1c:aa:07:c7:89:d0,UNL-Wireless-Registration
13,06,-59,00,2104,00,00,1c:aa:07:c7:88:10,UNL-Wireless-Registration
14,06,-60,08,3104,28,00,1c:aa:07:c7:88:12,UNL-AIR-E
15,06,-60,00,2104,00,00,1c:aa:07:c7:88:11,UNL-AIR
16,06,-60,00,2104,00,00,1c:aa:07:c7:88:13,UNL-Conference
17,06,-60,08,3104,28,00,1c:aa:07:c7:88:15,eduroam
18,06,-70,08,3104,28,00,00:25:84:24:46:f2,UNL-AIR-E
19,06,-70,08,3104,28,00,1c:aa:07:c7:89:d2,UNL-AIR-E
20,06,-69,00,2104,00,00,00:25:84:24:46:f3,UNL-Conference
21,06,-71,08,3104,28,00,1c:aa:07:c7:89:d5,eduroam
22,06,-70,00,2104,00,00,00:25:84:24:46:f0,UNL-Wireless-Registration
23,06,-69,00,2104,00,00,00:25:84:24:46:f1,UNL-AIR
24,06,-69,08,3104,28,00,00:25:84:24:46:f5,eduroam
25,06,-71,00,2104,00,00,1c:aa:07:c7:89:d3,UNL-Conference
END:
2013/09/27 20:56:05

SCAN:Found 25
01,01,-55,00,2104,00,00,00:25:84:24:79:70,UNL-Wireless-Registration
02,01,-56,08,3104,28,00,00:25:84:24:79:72,UNL-AIR-E
03,01,-76,08,3104,28,00,b4:e9:b0:59:ed:d5,eduroam
04,01,-65,00,2104,00,00,88:f0:77:36:67:81,UNL-AIR
05,01,-65,00,2104,00,00,88:f0:77:36:67:83,UNL-Conference
06,01,-59,00,2104,00,00,1c:aa:07:c7:88:b3,UNL-Conference
07,01,-59,00,2104,00,00,1c:aa:07:c7:88:b0,UNL-Wireless-Registration
08,01,-66,08,3104,28,00,88:f0:77:36:67:82,UNL-AIR-E
09,01,-77,00,2104,00,00,b4:e9:b0:59:ed:d3,UNL-Conference
10,01,-65,08,3104,28,00,88:f0:77:36:67:85,eduroam
11,06,-59,00,2104,00,00,1c:aa:07:c7:88:10,UNL-Wireless-Registration
12,06,-60,08,3104,28,00,1c:aa:07:c7:88:12,UNL-AIR-E
13,06,-60,00,2104,00,00,1c:aa:07:c7:88:11,UNL-AIR
14,06,-70,00,2104,00,00,1c:aa:07:c7:89:d1,UNL-AIR
15,06,-60,00,2104,00,00,1c:aa:07:c7:88:13,UNL-Conference
16,06,-60,08,3104,28,00,1c:aa:07:c7:88:15,eduroam
17,06,-70,08,3104,28,00,00:25:84:24:46:f5,eduroam
18,06,-70,00,2104,00,00,1c:aa:07:c7:89:d3,UNL-Conference
19,06,-70,08,3104,28,00,1c:aa:07:c7:89:d5,eduroam
20,06,-70,00,2104,00,00,00:25:84:24:46:f0,UNL-Wireless-Registration
21,06,-70,08,3104,28,00,1c:aa:07:c7:89:d2,UNL-AIR-E
22,06,-70,00,2104,00,00,00:25:84:24:46:f1,UNL-AIR
23,11,-71,00,2104,00,00,00:25:84:24:78:c0,UNL-Wireless-Registration
24,11,-65,00,2104,00,00,1c:aa:07:c7:86:41,UNL-AIR
25,11,-58,08,3104,28,00,88:f0:77:36:72:f2,UNL-AIR-E
END:
2013/09/27 20:56:24

SCAN:Found 25
01,01,-54,00,2104,00,00,00:25:84:24:79:70,UNL-Wireless-Registration
02,01,-54,08,3104,28,00,00:25:84:24:79:75,eduroam
03,01,-66,08,3104,28,00,88:f0:77:36:67:82,UNL-AIR-E
04,01,-57,08,3104,28,00,1c:aa:07:c7:88:b2,UNL-AIR-E
05,01,-73,08,3104,28,00,b4:e9:b0:59:ed:d5,eduroam
06,01,-65,00,2104,00,00,88:f0:77:36:67:81,UNL-AIR
07,01,-66,00,2104,00,00,88:f0:77:36:67:80,UNL-Wireless-Registration
08,01,-77,00,2104,00,00,b4:e9:b0:9e:5e:03,UNL-Conference
09,01,-54,00,2104,00,00,00:25:84:24:79:73,UNL-Conference
10,01,-66,00,2104,00,00,88:f0:77:36:67:83,UNL-Conference
11,06,-60,08,3104,28,00,1c:aa:07:c7:88:12,UNL-AIR-E
12,06,-60,00,2104,00,00,1c:aa:07:c7:88:11,UNL-AIR
13,06,-71,00,2104,00,00,1c:aa:07:c7:89:d0,UNL-Wireless-Registration
14,06,-72,08,3104,28,00,00:25:84:24:46:f2,UNL-AIR-E
15,06,-72,08,3104,28,00,1c:aa:07:c7:89:d2,UNL-AIR-E
16,06,-72,00,2104,00,00,00:25:84:24:46:f1,UNL-AIR
17,06,-71,00,2104,00,00,1c:aa:07:c7:89:d1,UNL-AIR
18,06,-71,00,2104,00,00,00:25:84:24:46:f3,UNL-Conference
19,06,-72,00,2104,00,00,1c:aa:07:c7:89:d3,UNL-Conference
20,06,-60,08,3104,28,00,1c:aa:07:c7:88:15,eduroam
21,06,-71,08,3104,28,00,1c:aa:07:c7:89:d5,eduroam
22,06,-71,08,3104,28,00,00:25:84:24:46:f5,eduroam
23,11,-57,00,2104,00,00,88:f0:77:36:72:f0,UNL-Wireless-Registration
24,11,-58,08,3104,28,00,88:f0:77:36:72:f2,UNL-AIR-E
25,11,-57,00,2104,00,00,88:f0:77:36:72:f1,UNL-AIR
END:
2013/09/27 20:56:44

SCAN:Found 25
01,01,-55,00,2104,00,00,00:25:84:24:79:70,UNL-Wireless-Registration
02,01,-67,08,3104,28,00,88:f0:77:36:67:82,UNL-AIR-E
03,01,-55,08,3104,28,00,00:25:84:24:79:72,UNL-AIR-E
04,01,-57,00,2104,00,00,1c:aa:07:c7:88:b0,UNL-Wireless-Registration
05,01,-74,00,2104,00,00,b4:e9:b0:59:ed:d0,UNL-Wireless-Registration
06,01,-57,00,2104,00,00,1c:aa:07:c7:88:b1,UNL-AIR
07,01,-66,08,3104,28,00,88:f0:77:36:67:85,eduroam
08,01,-57,00,2104,00,00,1c:aa:07:c7:88:b3,UNL-Conference
09,01,-75,08,3104,28,00,b4:e9:b0:59:ed:d2,UNL-AIR-E
10,01,-56,00,2104,00,00,00:25:84:24:79:71,UNL-AIR
11,06,-59,00,2104,00,00,1c:aa:07:c7:88:10,UNL-Wireless-Registration
12,06,-59,08,3104,28,00,1c:aa:07:c7:88:12,UNL-AIR-E
13,06,-59,00,2104,00,00,1c:aa:07:c7:88:11,UNL-AIR
14,06,-59,00,2104,00,00,1c:aa:07:c7:88:13,UNL-Conference
15,06,-72,08,3104,28,00,00:25:84:24:46:f2,UNL-AIR-E
16,06,-59,08,3104,28,00,1c:aa:07:c7:88:15,eduroam
17,06,-68,00,2104,00,00,1c:aa:07:c7:89:d1,UNL-AIR
18,06,-71,00,2104,00,00,00:25:84:24:46:f3,UNL-Conference
19,06,-71,08,3104,28,00,00:25:84:24:46:f5,eduroam
20,06,-68,00,2104,00,00,1c:aa:07:c7:89:d3,UNL-Conference
21,06,-68,08,3104,28,00,1c:aa:07:c7:89:d5,eduroam
22,06,-71,00,2104,00,00,00:25:84:24:46:f0,UNL-Wireless-Registration
23,06,-68,00,2104,00,00,1c:aa:07:c7:89:d0,UNL-Wireless-Registration
24,06,-71,00,2104,00,00,00:25:84:24:46:f1,UNL-AIR
25,06,-78,08,3104,28,00,00:25:84:24:78:a2,UNL-AIR-E
END:
2013/09/27 20:57:03

SCAN:Found 25
01,01,-56,00,2104,00,00,00:25:84:24:79:71,UNL-AIR
02,01,-55,00,2104,00,00,00:25:84:24:79:70,UNL-Wireless-Registration
03,01,-56,00,2104,00,00,1c:aa:07:c7:88:b0,UNL-Wireless-Registration
04,01,-65,00,2104,00,00,88:f0:77:36:67:80,UNL-Wireless-Registration
05,01,-71,08,3104,28,00,88:f0:77:36:67:85,eduroam
06,01,-57,08,3104,28,00,00:25:84:24:79:72,UNL-AIR-E
07,01,-56,00,2104,00,00,1c:aa:07:c7:88:b3,UNL-Conference
08,01,-66,00,2104,00,00,88:f0:77:36:67:81,UNL-AIR
09,01,-55,00,2104,00,00,00:25:84:24:79:73,UNL-Conference
10,01,-55,08,3104,28,00,00:25:84:24:79:75,eduroam
11,01,-56,08,3104,28,00,1c:aa:07:c7:88:b2,UNL-AIR-E
12,01,-56,00,2104,00,00,1c:aa:07:c7:88:b1,UNL-AIR
13,01,-57,08,3104,28,00,1c:aa:07:c7:88:b5,eduroam
14,01,-67,08,3104,28,00,88:f0:77:36:67:82,UNL-AIR-E
15,01,-74,00,2104,00,00,b4:e9:b0:59:ed:d3,UNL-Conference
16,01,-74,08,3104,28,00,b4:e9:b0:59:ed:d2,UNL-AIR-E
17,06,-56,00,2104,00,00,1c:aa:07:c7:88:10,UNL-Wireless-Registration
18,06,-56,08,3104,28,00,1c:aa:07:c7:88:12,UNL-AIR-E
19,06,-69,08,3104,28,00,1c:aa:07:c7:89:d2,UNL-AIR-E
20,06,-71,00,2104,00,00,00:25:84:24:46:f1,UNL-AIR
21,06,-55,00,2104,00,00,1c:aa:07:c7:88:11,UNL-AIR
22,06,-69,00,2104,00,00,1c:aa:07:c7:89:d1,UNL-AIR
23,06,-71,00,2104,00,00,00:25:84:24:46:f3,UNL-Conference
24,06,-69,00,2104,00,00,1c:aa:07:c7:89:d3,UNL-Conference
25,06,-69,08,3104,28,00,1c:aa:07:c7:89:d5,eduroam
END:
2013/09/27 20:57:24

SCAN:Found 25
01,01,-56,08,3104,28,00,00:25:84:24:79:72,UNL-AIR-E
02,01,-58,08,3104,28,00,1c:aa:07:c7:88:b2,UNL-AIR-E
03,01,-56,00,2104,00,00,00:25:84:24:79:71,UNL-AIR
04,01,-56,00,2104,00,00,00:25:84:24:79:73,UNL-Conference
05,01,-58,00,2104,00,00,1c:aa:07:c7:88:b1,UNL-AIR
06,01,-58,00,2104,00,00,1c:aa:07:c7:88:b3,UNL-Conference
07,01,-56,08,3104,28,00,00:25:84:24:79:75,eduroam
08,01,-58,08,3104,28,00,1c:aa:07:c7:88:b5,eduroam
09,01,-56,00,2104,00,00,00:25:84:24:79:70,UNL-Wireless-Registration
10,01,-73,00,2104,00,00,b4:e9:b0:59:ed:d1,UNL-AIR
11,01,-77,08,3104,28,00,88:f0:77:36:74:f5,eduroam
12,01,-73,00,2104,00,00,b4:e9:b0:59:ed:d3,UNL-Conference
13,01,-77,00,2104,00,00,88:f0:77:36:74:f0,UNL-Wireless-Registration
14,01,-57,00,2104,00,00,1c:aa:07:c7:88:b0,UNL-Wireless-Registration
15,01,-73,08,3104,28,00,b4:e9:b0:59:ed:d5,eduroam
16,01,-65,00,2104,00,00,88:f0:77:36:67:81,UNL-AIR
17,01,-65,08,3104,28,00,88:f0:77:36:67:85,eduroam
18,01,-65,00,2104,00,00,88:f0:77:36:67:80,UNL-Wireless-Registration
19,06,-57,00,2104,00,00,1c:aa:07:c7:88:10,UNL-Wireless-Registration
20,06,-57,08,3104,28,00,1c:aa:07:c7:88:12,UNL-AIR-E
21,06,-58,00,2104,00,00,1c:aa:07:c7:88:11,UNL-AIR
22,06,-74,00,2104,00,00,00:25:84:24:46:f3,UNL-Conference
23,06,-80,08,3104,28,00,00:25:84:24:78:a2,UNL-AIR-E
24,06,-58,00,2104,00,00,1c:aa:07:c7:88:13,UNL-Conference
25,06,-70,00,2104,00,00,1c:aa:07:c7:89:d3,UNL-Conference
END:
